<?xml version="1.0" encoding="utf-8"?>
<!-- Generator: Adobe Illustrator 26.2.0, SVG Export Plug-In . SVG Version: 6.00 Build 0)  -->
<svg version="1.1" id="Laag_1" xmlns="http://www.w3.org/2000/svg" xmlns:xlink="http://www.w3.org/1999/xlink" x="0px" y="0px"
	 viewBox="0 0 471.7 521.2" style="enable-background:new 0 0 471.7 521.2;" xml:space="preserve">
<style type="text/css">
	.st0{clip-path:url(#SVGID_00000153700249751583405860000004368146674036111268_);}
	.st1{fill:#331A38;}
	.st2{fill:#FA448C;}
	.st3{fill:#FEC859;}
	.st4{fill:#43B5A0;}
	.st5{fill:#491D88;}
	.st6{clip-path:url(#SVGID_00000083082136073379050960000003645804997422658715_);}
	.st7{clip-path:url(#SVGID_00000023988421723404754070000010278771203726048168_);}
	.st8{clip-path:url(#SVGID_00000111160277369125987900000009712344344115212972_);}
	.st9{clip-path:url(#SVGID_00000149364108540898879410000004194114156282504599_);}
	.st10{clip-path:url(#SVGID_00000018217548425605423570000017331788854975741836_);}
</style>
<g id="symbol-1">
	<g>
		<g>
			<defs>
				<path id="SVGID_1_" d="M314.8,435.1c2.5,4.3,0,8.7-5,8.7h-180c-5,0-7.5-4.3-5-8.7l90-155.9c2.5-4.3,7.5-4.3,10,0L314.8,435.1z"
					/>
			</defs>
			<clipPath id="SVGID_00000146462180845288270200000008637005897566817975_">
				<use xlink:href="#SVGID_1_"  style="overflow:visible;"/>
			</clipPath>
			<g style="clip-path:url(#SVGID_00000146462180845288270200000008637005897566817975_);">
				<path class="st1" d="M314.8,435.1c2.5,4.3,0,8.7-5,8.7h-180c-5,0-7.5-4.3-5-8.7l90-155.9c2.5-4.3,7.5-4.3,10,0L314.8,435.1z"/>
				<path class="st2" d="M241.7,293c1.7,3,5,5,8.7,5c5.5,0,10-4.5,10-10s-4.5-10-10-10c-3.7,0-6.9,2-8.7,5h-61.3l-18.3,18.3
					c-5.6-2.7-12.5-1.7-17.1,2.9c-5.9,5.9-5.9,15.4,0,21.2c5.9,5.9,15.4,5.9,21.2,0c4.6-4.6,5.6-11.5,2.9-17.1l15.4-15.4H241.7z
					 M152.1,311.3c2-2,5.1-2,7.1,0c2,2,2,5.1,0,7.1c-2,2-5.1,2-7.1,0C150.2,316.4,150.2,313.2,152.1,311.3z"/>
				<path class="st2" d="M250.7,462c-5.8,2.1-10,7.6-10,14.1c0,8.3,6.7,15,15,15c8.3,0,15-6.7,15-15c0-6.5-4.2-12.1-10-14.1v-25.9
					l-18.3-18.3c2.7-5.6,1.7-12.5-2.9-17.1c-5.9-5.9-15.4-5.9-21.2,0c-5.9,5.9-5.9,15.4,0,21.2c4.6,4.6,11.5,5.6,17.1,2.9l15.4,15.4
					L250.7,462z M232.4,407.9c2,2,2,5.1,0,7.1s-5.1,2-7.1,0s-2-5.1,0-7.1S230.4,405.9,232.4,407.9z M260.7,476.2c0,2.8-2.2,5-5,5
					s-5-2.2-5-5s2.2-5,5-5S260.7,473.4,260.7,476.2z"/>
				<path class="st3" d="M257.4,328.4c3-1.7,5-5,5-8.7c0-5.5-4.5-10-10-10s-10,4.5-10,10c0,3.7,2,6.9,5,8.7v31.3l18.3,18.3
					c-2.7,5.6-1.7,12.5,2.9,17.1c5.9,5.9,15.4,5.9,21.2,0c5.9-5.9,5.9-15.4,0-21.2c-4.6-4.6-11.5-5.6-17.1-2.9l-15.4-15.4V328.4z
					 M275.7,388c-2-2-2-5.1,0-7.1c2-2,5.1-2,7.1,0s2,5.1,0,7.1C280.8,390,277.6,390,275.7,388z"/>
				<path class="st4" d="M168.3,470c-3,1.7-5,5-5,8.7c0,5.5,4.5,10,10,10c5.5,0,10-4.5,10-10c0-3.7-2-6.9-5-8.7v-31.3L160,420.4
					c2.7-5.6,1.7-12.5-2.9-17.1c-5.9-5.9-15.4-5.9-21.2,0c-5.9,5.9-5.9,15.4,0,21.2c4.6,4.6,11.5,5.6,17.1,2.9l15.4,15.4L168.3,470z
					 M150,410.4c2,2,2,5.1,0,7.1s-5.1,2-7.1,0s-2-5.1,0-7.1S148,408.4,150,410.4z"/>
				<path class="st4" d="M110.3,359.1c-2.1-5.8-7.6-10-14.1-10c-8.3,0-15,6.7-15,15s6.7,15,15,15c6.5,0,12.1-4.2,14.1-10H132
					l61.7,61.7c-0.9,3.3,0,7,2.6,9.7c3.9,3.9,10.2,3.9,14.1,0c3.9-3.9,3.9-10.2,0-14.1c-2.6-2.6-6.3-3.5-9.7-2.6l-64.6-64.6H110.3z
					 M96.1,369.1c-2.8,0-5-2.2-5-5s2.2-5,5-5s5,2.2,5,5C101.1,366.8,98.9,369.1,96.1,369.1z"/>
				<path class="st5" d="M302.3,368.1c2.1,5.8,7.6,10,14.1,10c8.3,0,15-6.7,15-15s-6.7-15-15-15c-6.5,0-12.1,4.2-14.1,10h-21.7
					l-25.4-25.4h-25.9c-2.1-5.8-7.6-10-14.1-10c-8.3,0-15,6.7-15,15s6.7,15,15,15c6.5,0,12.1-4.2,14.1-10h21.7l25.4,25.4H302.3z
					 M215.2,332.7c2.8,0,5,2.2,5,5s-2.2,5-5,5s-5-2.2-5-5S212.5,332.7,215.2,332.7z M316.4,358.1c2.8,0,5,2.2,5,5s-2.2,5-5,5
					c-2.8,0-5-2.2-5-5S313.7,358.1,316.4,358.1z"/>
				<path class="st3" d="M149.4,395.6c5.8-2.1,10-7.6,10-14.1c0-8.3-6.7-15-15-15s-15,6.7-15,15c0,6.5,4.2,12.1,10,14.1v85.9
					l18.3,18.3c-2.7,5.6-1.7,12.5,2.9,17.1c5.9,5.9,15.4,5.9,21.2,0c5.9-5.9,5.9-15.4,0-21.2c-4.6-4.6-11.5-5.6-17.1-2.9l-15.4-15.4
					L149.4,395.6z M167.7,509.7c-2-2-2-5.1,0-7.1s5.1-2,7.1,0s2,5.1,0,7.1S169.6,511.6,167.7,509.7z M139.4,381.4c0-2.8,2.2-5,5-5
					c2.8,0,5,2.2,5,5s-2.2,5-5,5C141.6,386.4,139.4,384.2,139.4,381.4z"/>
				<path class="st5" d="M256.1,438.8c-2.1-5.8-7.6-10-14.1-10c-8.3,0-15,6.7-15,15c0,8.3,6.7,15,15,15c6.5,0,12.1-4.2,14.1-10h41.7
					c2.1,5.8,7.6,10,14.1,10c8.3,0,15-6.7,15-15c0-8.3-6.7-15-15-15c-6.5,0-12.1,4.2-14.1,10H256.1z M311.9,448.8c-2.8,0-5-2.2-5-5
					s2.2-5,5-5c2.8,0,5,2.2,5,5S314.7,448.8,311.9,448.8z M241.9,448.8c-2.8,0-5-2.2-5-5s2.2-5,5-5c2.8,0,5,2.2,5,5
					S244.7,448.8,241.9,448.8z"/>
				<path class="st5" d="M180.6,316.4c2.2,0.6,4.4,2.3,6.2,4.9c1.9,2.4,3.6,5.4,5,8.8c2.7,6.7,4.2,14.5,2.7,20.2
					c-0.7,2.5-1.2,4.2-2.3,5.7c-0.7,1.1-1.8,2-3,2.8c1.7,1.7,4.2,3.8,6.4,6.2c1.6,2,2.5,4.4,2.9,8.8c0.8,7.7,0.8,13.5-0.2,17.8
					c-1,4.3-3.2,7.1-6.5,8.4c-1.5,0.6-3.2,0.9-5.2,1l8.6,2.3c0.5,0.1,0.8,0.7,0.7,1.2c-0.1,0.5-0.7,0.8-1.2,0.7l-11.6-3.1l-1.3,4.8
					c-0.1,0.5-0.7,0.8-1.2,0.7l-46.3-12.4c-0.5-0.1-0.8-0.7-0.7-1.2l1.3-4.8l-11.6-3.1c-0.5,0-1-0.7-0.8-1.2c0-0.5,0.7-1,1.2-0.8
					c3.9,1,7.7,2.1,11.5,3.1c-1.9-1.1-3.5-2.3-4.8-3.7c-2.8-2.9-4.2-6.6-3.4-11c0.8-4.3,3.9-9.4,9.4-15.5c3.1-3.4,5-5,7.4-5.9
					c2.5-0.9,5.8-1.6,8.5-2.2c-1.5-3.1-1.8-5.8-0.6-10.1c1.5-5.7,6.7-11.8,12.4-16.1c2.8-2.1,5.8-4,8.7-5.1
					C175.6,316.4,178.3,315.8,180.6,316.4L180.6,316.4z M174.2,338.6c-7.2-1.9-12.7-2.2-20-1.7c-0.3,0.7-0.6,1.5-0.8,2.3
					c-1.1,4.2-1.1,5.9,0.4,8.7c2.9,4.8,7.7,11.1,14.5,12.9c6.7,1.8,13.5,0,19.3-3.3c1.3-0.8,2.3-1.6,3-2.6c0.8-1.1,1.3-2.6,2-5.1
					c0.2-0.7,0.3-1.5,0.4-2.2C187.2,343.6,180.7,340.3,174.2,338.6L174.2,338.6z M187.3,346.9c-1,3.6-1.6,6-6.5,9.9
					c-3.1,1.8-7.3,3.2-12.1,1.9c-4.8-1.3-7.8-4.7-9.5-7.7c-2.3-5.8-1.7-8.1-0.7-11.8c2.3-1.3,8.8-0.5,15.2,1.2
					S186.2,344.7,187.3,346.9z M137.4,387.7l44.3,11.9l7-26.1l-44.3-11.9L137.4,387.7z M135.8,393.5l44.3,11.9l1-3.9l-44.3-11.9
					L135.8,393.5z"/>
			</g>
		</g>
		<g>
			<defs>
				<path id="SVGID_00000129893544280473866880000013593913000627149750_" d="M21.1,265.6c-5,0-7.5,4.3-5,8.7l90,155.9
					c2.5,4.3,7.5,4.3,10,0l90-155.9c2.5-4.3,0-8.7-5-8.7L21.1,265.6z"/>
			</defs>
			<clipPath id="SVGID_00000008841251381532277680000002074909230331703980_">
				<use xlink:href="#SVGID_00000129893544280473866880000013593913000627149750_"  style="overflow:visible;"/>
			</clipPath>
			<g style="clip-path:url(#SVGID_00000008841251381532277680000002074909230331703980_);">
				<path class="st1" d="M21.1,265.6c-5,0-7.5,4.3-5,8.7l90,155.9c2.5,4.3,7.5,4.3,10,0l90-155.9c2.5-4.3,0-8.7-5-8.7L21.1,265.6z"
					/>
				<path class="st2" d="M180.7,257.8c-3.5,0-6.8-1.8-8.7-5c-2.8-4.8-1.1-10.9,3.7-13.7c4.8-2.8,10.9-1.1,13.7,3.7
					c1.9,3.2,1.7,7,0,10l30.7,53.1l-6.7,25c5.1,3.5,7.7,9.9,6,16.3c-2.1,8-10.4,12.8-18.4,10.6c-8-2.1-12.8-10.4-10.6-18.4
					c1.7-6.3,7.2-10.6,13.3-11.1l5.6-21L180.7,257.8z M209.7,344.5c0.7-2.7-0.9-5.4-3.5-6.1c-2.7-0.7-5.4,0.9-6.1,3.5
					c-0.7,2.7,0.9,5.4,3.5,6.1C206.2,348.8,209,347.2,209.7,344.5z"/>
				<path class="st2" d="M29.9,334.5c1.1,6.1-1.6,12.5-7.3,15.7c-7.2,4.1-16.3,1.7-20.5-5.5c-4.1-7.2-1.7-16.3,5.5-20.5
					c5.7-3.3,12.6-2.4,17.3,1.6l22.4-12.9l25,6.7c3.5-5.1,9.9-7.7,16.3-6c8,2.1,12.8,10.4,10.6,18.4c-2.1,8-10.4,12.8-18.4,10.6
					c-6.3-1.7-10.6-7.2-11.1-13.3l-21-5.6L29.9,334.5z M85.9,323.3c-2.7-0.7-5.4,0.9-6.1,3.5c-0.7,2.7,0.9,5.4,3.5,6.1
					c2.7,0.7,5.4-0.9,6.1-3.5C90.1,326.8,88.6,324,85.9,323.3z M12.6,332.9c-2.4,1.4-3.2,4.4-1.8,6.8c1.4,2.4,4.4,3.2,6.8,1.8
					s3.2-4.4,1.8-6.8S15,331.6,12.6,332.9z"/>
				<path class="st3" d="M142.2,261.9c0-3.5,1.8-6.8,5-8.7c4.8-2.8,10.9-1.1,13.7,3.7s1.1,10.9-3.7,13.7c-3.2,1.9-7,1.7-10,0
					L120,286.3l-25-6.7c-3.5,5.1-9.9,7.7-16.3,6c-8-2.1-12.8-10.4-10.6-18.4c2.1-8,10.4-12.8,18.4-10.6c6.3,1.7,10.6,7.2,11.1,13.3
					l21,5.6L142.2,261.9z M77.9,269.8c-0.7,2.7,0.9,5.4,3.5,6.1s5.4-0.9,6.1-3.5s-0.9-5.4-3.5-6.1C81.3,265.5,78.6,267.1,77.9,269.8
					L77.9,269.8z"/>
				<path class="st4" d="M64.1,409.9c0,3.5-1.8,6.8-5,8.7c-4.8,2.8-10.9,1.1-13.7-3.7c-2.8-4.8-1.1-10.9,3.7-13.7
					c3.2-1.9,7-1.7,10,0l27.1-15.7l25,6.7c3.5-5.1,9.9-7.7,16.3-6c8,2.1,12.8,10.4,10.6,18.4c-2.1,8-10.4,12.8-18.4,10.6
					c-6.3-1.7-10.6-7.2-11.1-13.3l-21-5.6L64.1,409.9z M128.4,402c0.7-2.7-0.9-5.4-3.5-6.1s-5.4,0.9-6.1,3.5
					c-0.7,2.7,0.9,5.4,3.5,6.1C125,406.3,127.7,404.7,128.4,402L128.4,402z"/>
				<path class="st4" d="M189.2,404.6c6.1-1.1,12.5,1.6,15.7,7.3c4.1,7.2,1.7,16.3-5.5,20.5c-7.2,4.1-16.3,1.7-20.5-5.5
					c-3.3-5.7-2.4-12.6,1.6-17.3l-10.9-18.8l-84.2-22.6c-2.4,2.4-6.1,3.5-9.7,2.6c-5.3-1.4-8.5-6.9-7.1-12.2
					c1.4-5.3,6.9-8.5,12.2-7.1c3.6,1,6.2,3.7,7.1,7.1l88.2,23.6L189.2,404.6z M187.6,421.9c1.4,2.4,4.4,3.2,6.8,1.8
					c2.4-1.4,3.2-4.4,1.8-6.8c-1.4-2.4-4.4-3.2-6.8-1.8C187,416.4,186.2,419.5,187.6,421.9z"/>
				<path class="st5" d="M85.4,242.8c-6.1,1.1-12.5-1.6-15.7-7.3c-4.1-7.2-1.7-16.3,5.5-20.5c7.2-4.1,16.3-1.7,20.5,5.5
					c3.3,5.7,2.4,12.6-1.6,17.3l10.9,18.8l34.6,9.3l12.9,22.4c6.1-1.1,12.5,1.6,15.7,7.3c4.1,7.2,1.7,16.3-5.5,20.5
					c-7.2,4.1-16.3,1.7-20.5-5.5c-3.3-5.7-2.4-12.6,1.6-17.3l-10.9-18.8l-34.6-9.3L85.4,242.8z M159.5,300.6
					c-1.4-2.4-4.4-3.2-6.8-1.8c-2.4,1.4-3.2,4.4-1.8,6.8c1.4,2.4,4.4,3.2,6.8,1.8S160.9,303,159.5,300.6z M87,225.6
					c-1.4-2.4-4.4-3.2-6.8-1.8s-3.2,4.4-1.8,6.8c1.4,2.4,4.4,3.2,6.8,1.8S88.4,228,87,225.6z"/>
				<path class="st3" d="M138,389c-1.1-6.1,1.6-12.5,7.3-15.7c7.2-4.1,16.3-1.7,20.5,5.5s1.7,16.3-5.5,20.5
					c-5.7,3.3-12.6,2.4-17.3-1.6l-74.4,42.9l-25-6.7c-3.5,5.1-9.9,7.7-16.3,6c-8-2.1-12.8-10.4-10.6-18.4c2.1-8,10.4-12.8,18.4-10.6
					c6.3,1.7,10.6,7.2,11.1,13.3l21,5.6L138,389z M26.5,424.1c-0.7,2.7,0.9,5.4,3.5,6.1s5.4-0.9,6.1-3.5c0.7-2.7-0.9-5.4-3.5-6.1
					C30,419.9,27.2,421.4,26.5,424.1L26.5,424.1z M155.3,390.6c2.4-1.4,3.2-4.4,1.8-6.8c-1.4-2.4-4.4-3.2-6.8-1.8
					c-2.4,1.4-3.2,4.4-1.8,6.8C149.8,391.1,152.9,392,155.3,390.6z"/>
				<path class="st5" d="M47.3,318.2c6.1-1.1,12.5,1.6,15.7,7.3c4.1,7.2,1.7,16.3-5.5,20.5c-7.2,4.1-16.3,1.7-20.5-5.5
					c-3.3-5.7-2.4-12.6,1.6-17.3l-20.9-36.1c-6.1,1.1-12.5-1.6-15.7-7.3c-4.1-7.2-1.7-16.3,5.5-20.5c7.2-4.1,16.3-1.7,20.5,5.5
					c3.3,5.7,2.4,12.6-1.6,17.3L47.3,318.2z M10.7,274.8c1.4,2.4,4.4,3.2,6.8,1.8c2.4-1.4,3.2-4.4,1.8-6.8c-1.4-2.4-4.4-3.2-6.8-1.8
					S9.3,272.5,10.7,274.8z M45.7,335.5c1.4,2.4,4.4,3.2,6.8,1.8s3.2-4.4,1.8-6.8c-1.4-2.4-4.4-3.2-6.8-1.8S44.3,333.1,45.7,335.5z"
					/>
				<path class="st5" d="M191,322.4c-1.6-1.6-4.2-2.6-7.4-3c-3-0.5-6.5-0.4-10.1,0.1c-7.2,1-14.6,3.6-18.8,7.8
					c-1.8,1.8-3,3.2-3.8,4.8c-0.6,1.1-0.8,2.5-0.9,4c-2.3-0.6-5.4-1.7-8.6-2.5c-2.5-0.4-5.1,0-9.1,1.8c-7.1,3.1-12.1,6-15.3,9.1
					c-3.2,3-4.5,6.4-4,9.8c0.2,1.6,0.8,3.3,1.8,5l-6.3-6.3c-0.4-0.4-1.1-0.4-1.4,0c-0.4,0.4-0.4,1.1,0,1.4l8.5,8.5l-3.5,3.5
					c-0.4,0.4-0.4,1.1,0,1.4l33.9,33.9c0.4,0.4,1.1,0.4,1.4,0l3.5-3.5l8.5,8.5c0.3,0.4,1.1,0.5,1.4,0.1c0.4-0.3,0.5-1.1,0.1-1.4
					c-2.8-2.8-5.7-5.7-8.4-8.4c1.9,1.1,3.7,1.9,5.6,2.3c4,1,7.8,0.4,11.2-2.6c3.3-2.9,6.2-8.1,8.7-15.9c1.4-4.4,1.8-6.8,1.4-9.3
					c-0.5-2.6-1.6-5.8-2.3-8.4c3.5-0.2,5.9-1.3,9.1-4.5c4.2-4.2,6.9-11.7,7.8-18.8c0.4-3.5,0.6-7.1,0.1-10.1
					C193.5,326.7,192.7,324.1,191,322.4L191,322.4z M186.5,355.5c-0.5,0.6-1,1.3-1.6,1.8c-3,3-4.6,3.9-7.7,4
					c-5.6-0.1-13.4-1.1-18.4-6.1c-4.9-4.9-6.7-11.7-6.8-18.4c0-1.6,0.2-2.8,0.8-3.9c0.6-1.3,1.6-2.5,3.4-4.2c0.5-0.5,1.1-1,1.7-1.4
					c6.2,3,12.3,6.9,17,11.7C180.3,344.3,183.2,348.9,186.5,355.5z M161.2,331.8c-2.6,2.6-4.4,4.4-5.3,10.5c0,3.5,0.8,7.9,4.4,11.5
					c3.5,3.5,7.9,4.4,11.5,4.4c6.2-0.9,7.8-2.6,10.5-5.3c0-2.7-4-7.9-8.6-12.6S163.7,331.7,161.2,331.8z M150.9,395.5L118.4,363
					l19.1-19.1l32.5,32.5L150.9,395.5z M146.6,399.7l-32.5-32.5l2.8-2.8l32.5,32.5L146.6,399.7z"/>
			</g>
		</g>
		<g>
			<defs>
				<path id="SVGID_00000065045749609097401730000011554908671695099042_" d="M21.1,255.6c-5,0-7.5-4.3-5-8.7l90-155.9
					c2.5-4.3,7.5-4.3,10,0l90,155.9c2.5,4.3,0,8.7-5,8.7H21.1z"/>
			</defs>
			<clipPath id="SVGID_00000119839632651594458900000016838656618230510483_">
				<use xlink:href="#SVGID_00000065045749609097401730000011554908671695099042_"  style="overflow:visible;"/>
			</clipPath>
			<g style="clip-path:url(#SVGID_00000119839632651594458900000016838656618230510483_);">
				<path class="st1" d="M21.1,255.6c-5,0-7.5-4.3-5-8.7l90-155.9c2.5-4.3,7.5-4.3,10,0l90,155.9c2.5,4.3,0,8.7-5,8.7H21.1z"/>
				<path class="st2" d="M180.7,263.4c-3.5,0-6.8,1.8-8.7,5c-2.8,4.8-1.1,10.9,3.7,13.7c4.8,2.8,10.9,1.1,13.7-3.7
					c1.9-3.2,1.7-7,0-10l30.7-53.1l-6.7-25c5.1-3.5,7.7-9.9,6-16.3c-2.1-8-10.4-12.8-18.4-10.6c-8,2.1-12.8,10.4-10.6,18.4
					c1.7,6.3,7.2,10.6,13.3,11.1l5.6,21L180.7,263.4z M209.7,176.7c0.7,2.7-0.9,5.4-3.5,6.1c-2.7,0.7-5.4-0.9-6.1-3.5
					c-0.7-2.7,0.9-5.4,3.5-6.1C206.2,172.4,209,174,209.7,176.7z"/>
				<path class="st2" d="M29.9,186.6c1.1-6.1-1.6-12.5-7.3-15.7c-7.2-4.1-16.3-1.7-20.5,5.5s-1.7,16.3,5.5,20.5
					c5.7,3.3,12.6,2.4,17.3-1.6l22.4,12.9l25-6.7c3.5,5.1,9.9,7.7,16.3,6c8-2.1,12.8-10.4,10.6-18.4c-2.1-8-10.4-12.8-18.4-10.6
					c-6.3,1.7-10.6,7.2-11.1,13.3l-21,5.6L29.9,186.6z M85.9,197.9c-2.7,0.7-5.4-0.9-6.1-3.5c-0.7-2.7,0.9-5.4,3.5-6.1
					s5.4,0.9,6.1,3.5C90.1,194.4,88.6,197.1,85.9,197.9z M12.6,188.2c-2.4-1.4-3.2-4.4-1.8-6.8c1.4-2.4,4.4-3.2,6.8-1.8
					s3.2,4.4,1.8,6.8S15,189.6,12.6,188.2z"/>
				<path class="st3" d="M142.2,259.2c0,3.5,1.8,6.8,5,8.7c4.8,2.8,10.9,1.1,13.7-3.7s1.1-10.9-3.7-13.7c-3.2-1.9-7-1.7-10,0
					L120,234.9l-25,6.7c-3.5-5.1-9.9-7.7-16.3-6c-8,2.1-12.8,10.4-10.6,18.4c2.1,8,10.4,12.8,18.4,10.6c6.3-1.7,10.6-7.2,11.1-13.3
					l21-5.6L142.2,259.2z M77.9,251.4c-0.7-2.7,0.9-5.4,3.5-6.1s5.4,0.9,6.1,3.5s-0.9,5.4-3.5,6.1C81.3,255.6,78.6,254.1,77.9,251.4
					L77.9,251.4z"/>
				<path class="st4" d="M64.1,111.3c0-3.5-1.8-6.8-5-8.7c-4.8-2.8-10.9-1.1-13.7,3.7c-2.8,4.8-1.1,10.9,3.7,13.7
					c3.2,1.9,7,1.7,10,0l27.1,15.7l25-6.7c3.5,5.1,9.9,7.7,16.3,6c8-2.1,12.8-10.4,10.6-18.4c-2.1-8-10.4-12.8-18.4-10.6
					c-6.3,1.7-10.6,7.2-11.1,13.3l-21,5.6L64.1,111.3z M128.4,119.1c0.7,2.7-0.9,5.4-3.5,6.1c-2.7,0.7-5.4-0.9-6.1-3.5
					s0.9-5.4,3.5-6.1S127.7,116.5,128.4,119.1L128.4,119.1z"/>
				<path class="st4" d="M189.2,116.5c6.1,1.1,12.5-1.6,15.7-7.3c4.1-7.2,1.7-16.3-5.5-20.5c-7.2-4.1-16.3-1.7-20.5,5.5
					c-3.3,5.7-2.4,12.6,1.6,17.3l-10.9,18.8l-84.2,22.6c-2.4-2.4-6.1-3.5-9.7-2.6c-5.3,1.4-8.5,6.9-7.1,12.2
					c1.4,5.3,6.9,8.5,12.2,7.1c3.6-1,6.2-3.7,7.1-7.1l88.2-23.6L189.2,116.5z M187.6,99.3c1.4-2.4,4.4-3.2,6.8-1.8
					c2.4,1.4,3.2,4.4,1.8,6.8c-1.4,2.4-4.4,3.2-6.8,1.8S186.2,101.7,187.6,99.3z"/>
				<path class="st5" d="M85.4,278.3c-6.1-1.1-12.5,1.6-15.7,7.3c-4.1,7.2-1.7,16.3,5.5,20.5c7.2,4.1,16.3,1.7,20.5-5.5
					c3.3-5.7,2.4-12.6-1.6-17.3l10.9-18.8l34.6-9.3l12.9-22.4c6.1,1.1,12.5-1.6,15.7-7.3c4.1-7.2,1.7-16.3-5.5-20.5
					s-16.3-1.7-20.5,5.5c-3.3,5.7-2.4,12.6,1.6,17.3l-10.9,18.8l-34.6,9.3L85.4,278.3z M159.5,220.6c-1.4,2.4-4.4,3.2-6.8,1.8
					c-2.4-1.4-3.2-4.4-1.8-6.8s4.4-3.2,6.8-1.8S160.9,218.2,159.5,220.6z M87,295.6c-1.4,2.4-4.4,3.2-6.8,1.8
					c-2.4-1.4-3.2-4.4-1.8-6.8c1.4-2.4,4.4-3.2,6.8-1.8S88.4,293.2,87,295.6z"/>
				<path class="st3" d="M138,132.2c-1.1,6.1,1.6,12.5,7.3,15.7c7.2,4.1,16.3,1.7,20.5-5.5c4.1-7.2,1.7-16.3-5.5-20.5
					c-5.7-3.3-12.6-2.4-17.3,1.6L68.7,80.6l-25,6.7c-3.5-5.1-9.9-7.7-16.3-6c-8,2.1-12.8,10.4-10.6,18.4c2.1,8,10.4,12.8,18.4,10.6
					c6.3-1.7,10.6-7.2,11.1-13.3l21-5.6L138,132.2z M26.5,97.1c-0.7-2.7,0.9-5.4,3.5-6.1c2.7-0.7,5.4,0.9,6.1,3.5s-0.9,5.4-3.5,6.1
					S27.2,99.7,26.5,97.1L26.5,97.1z M155.3,130.6c2.4,1.4,3.2,4.4,1.8,6.8c-1.4,2.4-4.4,3.2-6.8,1.8c-2.4-1.4-3.2-4.4-1.8-6.8
					C149.8,130,152.9,129.2,155.3,130.6z"/>
				<path class="st5" d="M47.3,202.9c6.1,1.1,12.5-1.6,15.7-7.3c4.1-7.2,1.7-16.3-5.5-20.5c-7.2-4.1-16.3-1.7-20.5,5.5
					c-3.3,5.7-2.4,12.6,1.6,17.3l-20.9,36.1c-6.1-1.1-12.5,1.6-15.7,7.3c-4.1,7.2-1.7,16.3,5.5,20.5c7.2,4.1,16.3,1.7,20.5-5.5
					c3.3-5.7,2.4-12.6-1.6-17.3L47.3,202.9z M10.7,246.3c1.4-2.4,4.4-3.2,6.8-1.8c2.4,1.4,3.2,4.4,1.8,6.8c-1.4,2.4-4.4,3.2-6.8,1.8
					C10.1,251.8,9.3,248.7,10.7,246.3z M45.7,185.7c1.4-2.4,4.4-3.2,6.8-1.8s3.2,4.4,1.8,6.8s-4.4,3.2-6.8,1.8
					S44.3,188.1,45.7,185.7z"/>
				<path class="st5" d="M191,198.7c-1.6,1.6-4.2,2.6-7.4,3c-3,0.5-6.5,0.4-10.1-0.1c-7.2-1-14.6-3.6-18.8-7.8
					c-1.8-1.8-3-3.2-3.8-4.8c-0.6-1.1-0.8-2.5-0.9-4c-2.3,0.6-5.4,1.7-8.6,2.5c-2.5,0.4-5.1,0-9.1-1.8c-7.1-3.1-12.1-6-15.3-9.1
					c-3.2-3-4.5-6.4-4-9.8c0.2-1.6,0.8-3.3,1.8-5l-6.3,6.3c-0.4,0.4-1.1,0.4-1.4,0c-0.4-0.4-0.4-1.1,0-1.4l8.5-8.5l-3.5-3.5
					c-0.4-0.4-0.4-1.1,0-1.4l33.9-33.9c0.4-0.4,1.1-0.4,1.4,0l3.5,3.5l8.5-8.5c0.3-0.4,1.1-0.5,1.4-0.1c0.4,0.3,0.5,1.1,0.1,1.4
					c-2.8,2.8-5.7,5.7-8.4,8.4c1.9-1.1,3.7-1.9,5.6-2.3c4-1,7.8-0.4,11.2,2.6c3.3,2.9,6.2,8.1,8.7,15.9c1.4,4.4,1.8,6.8,1.4,9.3
					c-0.5,2.6-1.6,5.8-2.3,8.4c3.5,0.2,5.9,1.3,9.1,4.5c4.2,4.2,6.9,11.7,7.8,18.8c0.4,3.5,0.6,7.1,0.1,10.1
					C193.5,194.5,192.7,197,191,198.7L191,198.7z M186.5,165.7c-0.5-0.6-1-1.3-1.6-1.8c-3-3-4.6-3.9-7.7-4
					c-5.6,0.1-13.4,1.1-18.4,6.1c-4.9,4.9-6.7,11.7-6.8,18.4c0,1.6,0.2,2.8,0.8,3.9c0.6,1.3,1.6,2.5,3.4,4.2c0.5,0.5,1.1,1,1.7,1.4
					c6.2-3,12.3-6.9,17-11.7C180.3,176.9,183.2,172.3,186.5,165.7z M161.2,189.3c-2.6-2.6-4.4-4.4-5.3-10.5c0-3.5,0.8-7.9,4.4-11.5
					c3.5-3.5,7.9-4.4,11.5-4.4c6.2,0.9,7.8,2.6,10.5,5.3c0,2.7-4,7.9-8.6,12.6C169,185.5,163.7,189.5,161.2,189.3z M150.9,125.7
					l-32.5,32.5l19.1,19.1l32.5-32.5L150.9,125.7z M146.6,121.4l-32.5,32.5l2.8,2.8l32.5-32.5L146.6,121.4z"/>
			</g>
		</g>
		<g>
			<defs>
				<path id="SVGID_00000050634030379162274050000006561989117798003074_" d="M314.8,86c2.5-4.3,0-8.7-5-8.7h-180
					c-5,0-7.5,4.3-5,8.7l90,155.9c2.5,4.3,7.5,4.3,10,0L314.8,86z"/>
			</defs>
			<clipPath id="SVGID_00000116923485401138657620000004751104608606958736_">
				<use xlink:href="#SVGID_00000050634030379162274050000006561989117798003074_"  style="overflow:visible;"/>
			</clipPath>
			<g style="clip-path:url(#SVGID_00000116923485401138657620000004751104608606958736_);">
				<path class="st1" d="M314.8,86c2.5-4.3,0-8.7-5-8.7h-180c-5,0-7.5,4.3-5,8.7l90,155.9c2.5,4.3,7.5,4.3,10,0L314.8,86z"/>
				<path class="st2" d="M241.7,228.2c1.7-3,5-5,8.7-5c5.5,0,10,4.5,10,10c0,5.5-4.5,10-10,10c-3.7,0-6.9-2-8.7-5h-61.3l-18.3-18.3
					c-5.6,2.7-12.5,1.7-17.1-2.9c-5.9-5.9-5.9-15.4,0-21.2c5.9-5.9,15.4-5.9,21.2,0c4.6,4.6,5.6,11.5,2.9,17.1l15.4,15.4H241.7z
					 M152.1,209.9c2,2,5.1,2,7.1,0s2-5.1,0-7.1c-2-2-5.1-2-7.1,0C150.2,204.8,150.2,207.9,152.1,209.9z"/>
				<path class="st2" d="M250.7,59.1c-5.8-2.1-10-7.6-10-14.1c0-8.3,6.7-15,15-15c8.3,0,15,6.7,15,15c0,6.5-4.2,12.1-10,14.1V85
					l-18.3,18.3c2.7,5.6,1.7,12.5-2.9,17.1c-5.9,5.9-15.4,5.9-21.2,0c-5.9-5.9-5.9-15.4,0-21.2c4.6-4.6,11.5-5.6,17.1-2.9l15.4-15.4
					L250.7,59.1z M232.4,113.3c2-2,2-5.1,0-7.1s-5.1-2-7.1,0s-2,5.1,0,7.1S230.4,115.2,232.4,113.3z M260.7,45c0-2.8-2.2-5-5-5
					s-5,2.2-5,5s2.2,5,5,5S260.7,47.8,260.7,45z"/>
				<path class="st3" d="M257.4,192.7c3,1.7,5,5,5,8.7c0,5.5-4.5,10-10,10s-10-4.5-10-10c0-3.7,2-6.9,5-8.7v-31.3l18.3-18.3
					c-2.7-5.6-1.7-12.5,2.9-17.1c5.9-5.9,15.4-5.9,21.2,0c5.9,5.9,5.9,15.4,0,21.2c-4.6,4.6-11.5,5.6-17.1,2.9l-15.4,15.4V192.7z
					 M275.7,133.1c-2,2-2,5.1,0,7.1c2,2,5.1,2,7.1,0s2-5.1,0-7.1C280.8,131.2,277.6,131.2,275.7,133.1z"/>
				<path class="st4" d="M168.3,51.2c-3-1.7-5-5-5-8.7c0-5.5,4.5-10,10-10c5.5,0,10,4.5,10,10c0,3.7-2,6.9-5,8.7v31.3L160,100.8
					c2.7,5.6,1.7,12.5-2.9,17.1c-5.9,5.9-15.4,5.9-21.2,0c-5.9-5.9-5.9-15.4,0-21.2c4.6-4.6,11.5-5.6,17.1-2.9l15.4-15.4L168.3,51.2
					z M150,110.8c2-2,2-5.1,0-7.1s-5.1-2-7.1,0s-2,5.1,0,7.1S148,112.7,150,110.8z"/>
				<path class="st4" d="M110.3,162.1c-2.1,5.8-7.6,10-14.1,10c-8.3,0-15-6.7-15-15s6.7-15,15-15c6.5,0,12.1,4.2,14.1,10H132
					l61.7-61.7c-0.9-3.3,0-7,2.6-9.7c3.9-3.9,10.2-3.9,14.1,0c3.9,3.9,3.9,10.2,0,14.1c-2.6,2.6-6.3,3.5-9.7,2.6l-64.6,64.6H110.3z
					 M96.1,152.1c-2.8,0-5,2.2-5,5c0,2.8,2.2,5,5,5s5-2.2,5-5C101.1,154.3,98.9,152.1,96.1,152.1z"/>
				<path class="st5" d="M302.3,153.1c2.1-5.8,7.6-10,14.1-10c8.3,0,15,6.7,15,15s-6.7,15-15,15c-6.5,0-12.1-4.2-14.1-10h-21.7
					l-25.4,25.4h-25.9c-2.1,5.8-7.6,10-14.1,10c-8.3,0-15-6.7-15-15s6.7-15,15-15c6.5,0,12.1,4.2,14.1,10h21.7l25.4-25.4H302.3z
					 M215.2,188.4c2.8,0,5-2.2,5-5s-2.2-5-5-5s-5,2.2-5,5S212.5,188.4,215.2,188.4z M316.4,163.1c2.8,0,5-2.2,5-5c0-2.8-2.2-5-5-5
					c-2.8,0-5,2.2-5,5C311.4,160.8,313.7,163.1,316.4,163.1z"/>
				<path class="st3" d="M149.4,125.6c5.8,2.1,10,7.6,10,14.1c0,8.3-6.7,15-15,15s-15-6.7-15-15c0-6.5,4.2-12.1,10-14.1V39.7
					l18.3-18.3C155,15.9,156,9,160.6,4.4c5.9-5.9,15.4-5.9,21.2,0c5.9,5.9,5.9,15.4,0,21.2c-4.6,4.6-11.5,5.6-17.1,2.9l-15.4,15.4
					L149.4,125.6z M167.7,11.5c-2,2-2,5.1,0,7.1s5.1,2,7.1,0s2-5.1,0-7.1S169.6,9.5,167.7,11.5z M139.4,139.7c0,2.8,2.2,5,5,5
					c2.8,0,5-2.2,5-5c0-2.8-2.2-5-5-5C141.6,134.7,139.4,137,139.4,139.7z"/>
				<path class="st5" d="M256.1,82.4c-2.1,5.8-7.6,10-14.1,10c-8.3,0-15-6.7-15-15s6.7-15,15-15c6.5,0,12.1,4.2,14.1,10h41.7
					c2.1-5.8,7.6-10,14.1-10c8.3,0,15,6.7,15,15s-6.7,15-15,15c-6.5,0-12.1-4.2-14.1-10H256.1z M311.9,72.4c-2.8,0-5,2.2-5,5
					s2.2,5,5,5c2.8,0,5-2.2,5-5S314.7,72.4,311.9,72.4z M241.9,72.4c-2.8,0-5,2.2-5,5s2.2,5,5,5c2.8,0,5-2.2,5-5
					S244.7,72.4,241.9,72.4z"/>
				<path class="st5" d="M180.6,204.7c2.2-0.6,4.4-2.3,6.2-4.9c1.9-2.4,3.6-5.4,5-8.8c2.7-6.7,4.2-14.5,2.7-20.2
					c-0.7-2.5-1.2-4.2-2.3-5.7c-0.7-1.1-1.8-2-3-2.8c1.7-1.7,4.2-3.8,6.4-6.2c1.6-2,2.5-4.4,2.9-8.8c0.8-7.7,0.8-13.5-0.2-17.8
					s-3.2-7.1-6.5-8.4c-1.5-0.6-3.2-0.9-5.2-1l8.6-2.3c0.5-0.1,0.8-0.7,0.7-1.2c-0.1-0.5-0.7-0.8-1.2-0.7l-11.6,3.1l-1.3-4.8
					c-0.1-0.5-0.7-0.8-1.2-0.7L134.3,126c-0.5,0.1-0.8,0.7-0.7,1.2l1.3,4.8l-11.6,3.1c-0.5,0-1,0.7-0.8,1.2c0,0.5,0.7,1,1.2,0.8
					c3.9-1,7.7-2.1,11.5-3.1c-1.9,1.1-3.5,2.3-4.8,3.7c-2.8,2.9-4.2,6.6-3.4,11c0.8,4.3,3.9,9.4,9.4,15.5c3.1,3.4,5,5,7.4,5.9
					c2.5,0.9,5.8,1.6,8.5,2.2c-1.5,3.1-1.8,5.8-0.6,10.1c1.5,5.7,6.7,11.8,12.4,16.1c2.8,2.1,5.8,4,8.7,5.1
					C175.6,204.8,178.3,205.3,180.6,204.7L180.6,204.7z M174.2,182.6c-7.2,1.9-12.7,2.2-20,1.7c-0.3-0.7-0.6-1.5-0.8-2.3
					c-1.1-4.2-1.1-5.9,0.4-8.7c2.9-4.8,7.7-11.1,14.5-12.9c6.7-1.8,13.5,0,19.3,3.3c1.3,0.8,2.3,1.6,3,2.6c0.8,1.1,1.3,2.6,2,5.1
					c0.2,0.7,0.3,1.5,0.4,2.2C187.2,177.6,180.7,180.9,174.2,182.6L174.2,182.6z M187.3,174.2c-1-3.6-1.6-6-6.5-9.9
					c-3.1-1.8-7.3-3.2-12.1-1.9c-4.8,1.3-7.8,4.7-9.5,7.7c-2.3,5.8-1.7,8.1-0.7,11.8c2.3,1.3,8.8,0.5,15.2-1.2
					S186.2,176.5,187.3,174.2z M137.4,133.5l44.3-11.9l7,26.1l-44.3,11.9L137.4,133.5z M135.8,127.7l44.3-11.9l1,3.9l-44.3,11.9
					L135.8,127.7z"/>
			</g>
		</g>
		<g>
			<defs>
				<path id="SVGID_00000028292012773976941680000001456154840497257124_" d="M323.4,91c2.5-4.3,7.5-4.3,10,0l90,155.9
					c2.5,4.3,0,8.7-5,8.7h-180c-5,0-7.5-4.3-5-8.7L323.4,91z"/>
			</defs>
			<clipPath id="SVGID_00000074434389703439801300000001347207840039361676_">
				<use xlink:href="#SVGID_00000028292012773976941680000001456154840497257124_"  style="overflow:visible;"/>
			</clipPath>
			<g style="clip-path:url(#SVGID_00000074434389703439801300000001347207840039361676_);">
				<path class="st1" d="M323.4,91c2.5-4.3,7.5-4.3,10,0l90,155.9c2.5,4.3,0,8.7-5,8.7h-180c-5,0-7.5-4.3-5-8.7L323.4,91z"/>
				<path class="st2" d="M236.8,225.3c1.7-3,1.8-6.8,0-10c-2.8-4.8-8.9-6.4-13.7-3.7s-6.4,8.9-3.7,13.7c1.9,3.2,5.2,5,8.7,5
					l30.7,53.1l25,6.7c0.5,6.2,4.8,11.6,11.1,13.3c8,2.1,16.2-2.6,18.4-10.6c2.1-8-2.6-16.2-10.6-18.4c-6.3-1.7-12.8,0.9-16.3,6
					l-21-5.6L236.8,225.3z M297.5,293.8c-2.7-0.7-4.3-3.5-3.5-6.1c0.7-2.7,3.5-4.3,6.1-3.5c2.7,0.7,4.3,3.5,3.5,6.1
					C302.9,292.9,300.1,294.5,297.5,293.8z"/>
				<path class="st2" d="M378.8,133.1c4.7,4,11.6,4.9,17.3,1.6c7.2-4.1,9.6-13.3,5.5-20.5c-4.1-7.2-13.3-9.6-20.5-5.5
					c-5.7,3.3-8.4,9.7-7.3,15.7l-22.4,12.9l-6.7,25c-6.2,0.5-11.6,4.8-13.3,11.1c-2.1,8,2.6,16.2,10.6,18.4
					c8,2.1,16.2-2.6,18.4-10.6c1.7-6.3-0.9-12.8-6-16.3l5.6-21L378.8,133.1z M341,176c0.7-2.7,3.5-4.3,6.1-3.5
					c2.7,0.7,4.3,3.5,3.5,6.1s-3.5,4.3-6.1,3.5C341.9,181.4,340.3,178.7,341,176z M386,117.4c2.4-1.4,5.4-0.6,6.8,1.8
					c1.4,2.4,0.6,5.4-1.8,6.8c-2.4,1.4-5.4,0.6-6.8-1.8S383.6,118.8,386,117.4z"/>
				<path class="st3" d="M259.7,194.1c-3-1.7-6.8-1.8-10,0c-4.8,2.8-6.4,8.9-3.7,13.7c2.8,4.8,8.9,6.4,13.7,3.7c3.2-1.9,5-5.2,5-8.7
					l27.1-15.7l6.7-25c6.2-0.5,11.6-4.8,13.3-11.1c2.1-8-2.6-16.2-10.6-18.4c-8-2.1-16.2,2.6-18.4,10.6c-1.7,6.3,0.9,12.8,6,16.3
					l-5.6,21L259.7,194.1z M302.2,148.4c-0.7,2.7-3.5,4.3-6.1,3.5c-2.7-0.7-4.3-3.5-3.5-6.1c0.7-2.7,3.5-4.3,6.1-3.5
					C301.3,143,302.9,145.8,302.2,148.4z"/>
				<path class="st4" d="M426.9,200.5c3,1.7,6.8,1.8,10,0c4.8-2.8,6.4-8.9,3.7-13.7s-8.9-6.4-13.7-3.7c-3.2,1.9-5,5.2-5,8.7
					l-27.1,15.7l-6.7,25c-6.2,0.5-11.6,4.8-13.3,11.1c-2.1,8,2.6,16.2,10.6,18.4c8,2.1,16.2-2.6,18.4-10.6c1.7-6.3-0.9-12.8-6-16.3
					l5.6-21L426.9,200.5z M387.9,252.2c-2.7-0.7-4.3-3.5-3.5-6.1s3.5-4.3,6.1-3.5c2.7,0.7,4.3,3.5,3.5,6.1S390.6,252.9,387.9,252.2
					L387.9,252.2z"/>
				<path class="st4" d="M359.8,306.1c-4,4.7-4.9,11.6-1.6,17.3c4.1,7.2,13.3,9.6,20.5,5.5c7.2-4.1,9.6-13.3,5.5-20.5
					c-3.3-5.7-9.7-8.4-15.7-7.3l-10.9-18.8l22.6-84.2c3.3-0.9,6.1-3.5,7.1-7.1c1.4-5.3-1.7-10.8-7.1-12.2
					c-5.3-1.4-10.8,1.7-12.2,7.1c-1,3.6,0.1,7.2,2.6,9.7l-23.6,88.2L359.8,306.1z M375.5,313.4c1.4,2.4,0.6,5.4-1.8,6.8
					c-2.4,1.4-5.4,0.6-6.8-1.8c-1.4-2.4-0.6-5.4,1.8-6.8C371.1,310.2,374.1,311,375.5,313.4z"/>
				<path class="st5" d="M271.6,135.3c4-4.7,4.9-11.6,1.6-17.3c-4.1-7.2-13.3-9.6-20.5-5.5c-7.2,4.1-9.6,13.3-5.5,20.5
					c3.3,5.7,9.7,8.4,15.7,7.3l10.9,18.8l-9.3,34.6l12.9,22.4c-4,4.7-4.9,11.6-1.6,17.3c4.1,7.2,13.3,9.6,20.5,5.5
					c7.2-4.1,9.6-13.3,5.5-20.5c-3.3-5.7-9.7-8.4-15.7-7.3l-10.9-18.8l9.3-34.6L271.6,135.3z M284.5,228.4c-1.4-2.4-0.6-5.4,1.8-6.8
					c2.4-1.4,5.4-0.6,6.8,1.8s0.6,5.4-1.8,6.8C288.9,231.6,285.9,230.8,284.5,228.4z M255.8,128.1c-1.4-2.4-0.6-5.4,1.8-6.8
					c2.4-1.4,5.4-0.6,6.8,1.8s0.6,5.4-1.8,6.8C260.3,131.3,257.2,130.5,255.8,128.1z"/>
				<path class="st3" d="M371.8,254c-4.7-4-11.6-4.9-17.3-1.6c-7.2,4.1-9.6,13.3-5.5,20.5c4.1,7.2,13.3,9.6,20.5,5.5
					c5.7-3.3,8.4-9.7,7.3-15.7l74.4-42.9l6.7-25c6.2-0.5,11.6-4.8,13.3-11.1c2.1-8-2.6-16.2-10.6-18.4c-8-2.1-16.2,2.6-18.4,10.6
					c-1.7,6.3,0.9,12.8,6,16.3l-5.6,21L371.8,254z M461.5,181.1c-0.7,2.7-3.5,4.3-6.1,3.5s-4.3-3.5-3.5-6.1s3.5-4.3,6.1-3.5
					C460.7,175.7,462.2,178.4,461.5,181.1z M364.6,269.8c-2.4,1.4-5.4,0.6-6.8-1.8c-1.4-2.4-0.6-5.4,1.8-6.8
					c2.4-1.4,5.4-0.6,6.8,1.8C367.8,265.3,367,268.4,364.6,269.8z"/>
				<path class="st5" d="M355.9,140c-4,4.7-4.9,11.6-1.6,17.3c4.1,7.2,13.3,9.6,20.5,5.5c7.2-4.1,9.6-13.3,5.5-20.5
					c-3.3-5.7-9.7-8.4-15.7-7.3l-20.9-36.1c4-4.7,4.9-11.6,1.6-17.3c-4.1-7.2-13.3-9.6-20.5-5.5c-7.2,4.1-9.6,13.3-5.5,20.5
					c3.3,5.7,9.7,8.4,15.7,7.3L355.9,140z M336.7,86.6c1.4,2.4,0.6,5.4-1.8,6.8c-2.4,1.4-5.4,0.6-6.8-1.8s-0.6-5.4,1.8-6.8
					C332.2,83.4,335.3,84.2,336.7,86.6z M371.7,147.3c1.4,2.4,0.6,5.4-1.8,6.8c-2.4,1.4-5.4,0.6-6.8-1.8s-0.6-5.4,1.8-6.8
					C367.2,144,370.3,144.9,371.7,147.3z"/>
				<path class="st5" d="M287.7,266.6c-0.6-2.2-0.2-4.9,1.1-7.9c1.1-2.9,2.9-5.8,5.1-8.7c4.5-5.8,10.4-10.9,16.1-12.4
					c2.5-0.7,4.3-1,6.1-0.9c1.3,0.1,2.6,0.5,4,1.2c0.6-2.3,1.2-5.5,2.1-8.6c0.9-2.4,2.5-4.4,6.1-6.9c6.2-4.6,11.3-7.5,15.5-8.7
					c4.2-1.2,7.8-0.7,10.5,1.4c1.3,1,2.4,2.4,3.5,4l-2.3-8.6c-0.1-0.5,0.2-1.1,0.7-1.2c0.5-0.1,1.1,0.2,1.2,0.7l3.1,11.6l4.8-1.3
					c0.5-0.1,1.1,0.2,1.2,0.7l12.4,46.3c0.1,0.5-0.2,1.1-0.7,1.2l-4.8,1.3l3.1,11.6c0.2,0.5-0.1,1.2-0.6,1.3
					c-0.5,0.2-1.2-0.1-1.3-0.6c-1-3.9-2.1-7.7-3.1-11.5c0,2.2-0.2,4.2-0.8,6c-1.1,3.9-3.6,7-7.9,8.4c-4.2,1.4-10.1,1.4-18.1-0.4
					c-4.5-1-6.8-1.8-8.8-3.4c-2-1.7-4.2-4.2-6.1-6.2c-1.9,2.9-4.1,4.4-8.4,5.6c-5.7,1.5-13.5,0.1-20.2-2.7c-3.3-1.4-6.4-3-8.8-5
					S288.3,268.9,287.7,266.6L287.7,266.6z M318.6,279.2c0.8-0.1,1.6-0.2,2.4-0.4c4.2-1.1,5.7-2,7.3-4.7c2.7-4.9,5.7-12.2,3.9-19
					c-1.8-6.7-6.7-11.7-12.5-15.1c-1.3-0.8-2.5-1.2-3.8-1.3c-1.4-0.1-3,0.2-5.4,0.8c-0.7,0.2-1.4,0.5-2.1,0.8
					c-0.5,6.9-0.2,14.1,1.6,20.6C312,268.3,314.5,273.1,318.6,279.2z M311.9,260.5c-1.7-6.4-2.5-12.9-1.1-15c3.6-1,6-1.6,11.8,0.7
					c3.1,1.8,6.4,4.7,7.7,9.5c1.3,4.8-0.2,9.1-1.9,12.1c-3.9,4.9-6.2,5.5-9.9,6.5C316.1,272.9,313.6,266.9,311.9,260.5L311.9,260.5z
					 M371,268.4L359.2,224l-26.1,7l11.9,44.3L371,268.4z M376.8,266.8l-11.9-44.3l-3.9,1l11.9,44.3L376.8,266.8z"/>
			</g>
		</g>
		<g>
			<defs>
				<path id="SVGID_00000109711666896172362130000014301382281776662707_" d="M323.4,430.1c2.5,4.3,7.5,4.3,10,0l90-155.9
					c2.5-4.3,0-8.7-5-8.7h-180c-5,0-7.5,4.3-5,8.7L323.4,430.1z"/>
			</defs>
			<clipPath id="SVGID_00000029029926729916926310000005348701995783566743_">
				<use xlink:href="#SVGID_00000109711666896172362130000014301382281776662707_"  style="overflow:visible;"/>
			</clipPath>
			<g style="clip-path:url(#SVGID_00000029029926729916926310000005348701995783566743_);">
				<path class="st1" d="M323.4,430.1c2.5,4.3,7.5,4.3,10,0l90-155.9c2.5-4.3,0-8.7-5-8.7h-180c-5,0-7.5,4.3-5,8.7L323.4,430.1z"/>
				<path class="st2" d="M236.8,295.8c1.7,3,1.8,6.8,0,10c-2.8,4.8-8.9,6.4-13.7,3.7s-6.4-8.9-3.7-13.7c1.9-3.2,5.2-5,8.7-5
					l30.7-53.1l25-6.7c0.5-6.2,4.8-11.6,11.1-13.3c8-2.1,16.2,2.6,18.4,10.6c2.1,8-2.6,16.2-10.6,18.4c-6.3,1.7-12.8-0.9-16.3-6
					l-21,5.6L236.8,295.8z M297.5,227.3c-2.7,0.7-4.3,3.5-3.5,6.1c0.7,2.7,3.5,4.3,6.1,3.5c2.7-0.7,4.3-3.5,3.5-6.1
					C302.9,228.2,300.1,226.6,297.5,227.3z"/>
				<path class="st2" d="M378.8,388.1c4.7-4,11.6-4.9,17.3-1.6c7.2,4.1,9.6,13.3,5.5,20.5c-4.1,7.2-13.3,9.6-20.5,5.5
					c-5.7-3.3-8.4-9.7-7.3-15.7l-22.4-12.9l-6.7-25c-6.2-0.5-11.6-4.8-13.3-11.1c-2.1-8,2.6-16.2,10.6-18.4s16.2,2.6,18.4,10.6
					c1.7,6.3-0.9,12.8-6,16.3l5.6,21L378.8,388.1z M341,345.2c0.7,2.7,3.5,4.3,6.1,3.5c2.7-0.7,4.3-3.5,3.5-6.1
					c-0.7-2.7-3.5-4.3-6.1-3.5S340.3,342.5,341,345.2z M386,403.8c2.4,1.4,5.4,0.6,6.8-1.8c1.4-2.4,0.6-5.4-1.8-6.8
					c-2.4-1.4-5.4-0.6-6.8,1.8S383.6,402.4,386,403.8z"/>
				<path class="st3" d="M259.7,327.1c-3,1.7-6.8,1.8-10,0c-4.8-2.8-6.4-8.9-3.7-13.7c2.8-4.8,8.9-6.4,13.7-3.7c3.2,1.9,5,5.2,5,8.7
					l27.1,15.7l6.7,25c6.2,0.5,11.6,4.8,13.3,11.1c2.1,8-2.6,16.2-10.6,18.4c-8,2.1-16.2-2.6-18.4-10.6c-1.7-6.3,0.9-12.8,6-16.3
					l-5.6-21L259.7,327.1z M302.2,372.7c-0.7-2.7-3.5-4.3-6.1-3.5c-2.7,0.7-4.3,3.5-3.5,6.1c0.7,2.7,3.5,4.3,6.1,3.5
					C301.3,378.1,302.9,375.4,302.2,372.7z"/>
				<path class="st4" d="M426.9,320.7c3-1.7,6.8-1.8,10,0c4.8,2.8,6.4,8.9,3.7,13.7s-8.9,6.4-13.7,3.7c-3.2-1.9-5-5.2-5-8.7
					l-27.1-15.7l-6.7-25c-6.2-0.5-11.6-4.8-13.3-11.1c-2.1-8,2.6-16.2,10.6-18.4c8-2.1,16.2,2.6,18.4,10.6c1.7,6.3-0.9,12.8-6,16.3
					l5.6,21L426.9,320.7z M387.9,268.9c-2.7,0.7-4.3,3.5-3.5,6.1s3.5,4.3,6.1,3.5c2.7-0.7,4.3-3.5,3.5-6.1
					C393.3,269.8,390.6,268.2,387.9,268.9L387.9,268.9z"/>
				<path class="st4" d="M359.8,215c-4-4.7-4.9-11.6-1.6-17.3c4.1-7.2,13.3-9.6,20.5-5.5c7.2,4.1,9.6,13.3,5.5,20.5
					c-3.3,5.7-9.7,8.4-15.7,7.3l-10.9,18.8l22.6,84.2c3.3,0.9,6.1,3.5,7.1,7.1c1.4,5.3-1.7,10.8-7.1,12.2
					c-5.3,1.4-10.8-1.7-12.2-7.1c-1-3.6,0.1-7.2,2.6-9.7l-23.6-88.2L359.8,215z M375.5,207.8c1.4-2.4,0.6-5.4-1.8-6.8
					c-2.4-1.4-5.4-0.6-6.8,1.8c-1.4,2.4-0.6,5.4,1.8,6.8C371.1,211,374.1,210.2,375.5,207.8z"/>
				<path class="st5" d="M271.6,385.8c4,4.7,4.9,11.6,1.6,17.3c-4.1,7.2-13.3,9.6-20.5,5.5c-7.2-4.1-9.6-13.3-5.5-20.5
					c3.3-5.7,9.7-8.4,15.7-7.3l10.9-18.8l-9.3-34.6l12.9-22.4c-4-4.7-4.9-11.6-1.6-17.3c4.1-7.2,13.3-9.6,20.5-5.5
					c7.2,4.1,9.6,13.3,5.5,20.5c-3.3,5.7-9.7,8.4-15.7,7.3l-10.9,18.8l9.3,34.6L271.6,385.8z M284.5,292.7c-1.4,2.4-0.6,5.4,1.8,6.8
					c2.4,1.4,5.4,0.6,6.8-1.8c1.4-2.4,0.6-5.4-1.8-6.8C288.9,289.5,285.9,290.3,284.5,292.7z M255.8,393.1c-1.4,2.4-0.6,5.4,1.8,6.8
					c2.4,1.4,5.4,0.6,6.8-1.8s0.6-5.4-1.8-6.8C260.3,389.9,257.2,390.7,255.8,393.1z"/>
				<path class="st3" d="M371.8,267.1c-4.7,4-11.6,4.9-17.3,1.6c-7.2-4.1-9.6-13.3-5.5-20.5c4.1-7.2,13.3-9.6,20.5-5.5
					c5.7,3.3,8.4,9.7,7.3,15.7l74.4,42.9l6.7,25c6.2,0.5,11.6,4.8,13.3,11.1c2.1,8-2.6,16.2-10.6,18.4c-8,2.1-16.2-2.6-18.4-10.6
					c-1.7-6.3,0.9-12.8,6-16.3l-5.6-21L371.8,267.1z M461.5,340c-0.7-2.7-3.5-4.3-6.1-3.5c-2.7,0.7-4.3,3.5-3.5,6.1
					c0.7,2.7,3.5,4.3,6.1,3.5S462.2,342.7,461.5,340z M364.6,251.4c-2.4-1.4-5.4-0.6-6.8,1.8c-1.4,2.4-0.6,5.4,1.8,6.8
					c2.4,1.4,5.4,0.6,6.8-1.8C367.8,255.8,367,252.8,364.6,251.4z"/>
				<path class="st5" d="M355.9,381.1c-4-4.7-4.9-11.6-1.6-17.3c4.1-7.2,13.3-9.6,20.5-5.5c7.2,4.1,9.6,13.3,5.5,20.5
					c-3.3,5.7-9.7,8.4-15.7,7.3l-20.9,36.1c4,4.7,4.9,11.6,1.6,17.3c-4.1,7.2-13.3,9.6-20.5,5.5c-7.2-4.1-9.6-13.3-5.5-20.5
					c3.3-5.7,9.7-8.4,15.7-7.3L355.9,381.1z M336.7,434.5c1.4-2.4,0.6-5.4-1.8-6.8c-2.4-1.4-5.4-0.6-6.8,1.8
					c-1.4,2.4-0.6,5.4,1.8,6.8C332.2,437.7,335.3,436.9,336.7,434.5z M371.7,373.9c1.4-2.4,0.6-5.4-1.8-6.8
					c-2.4-1.4-5.4-0.6-6.8,1.8c-1.4,2.4-0.6,5.4,1.8,6.8C367.2,377.1,370.3,376.3,371.7,373.9z"/>
				<path class="st5" d="M287.7,254.6c-0.6,2.2-0.2,4.9,1.1,7.9c1.1,2.9,2.9,5.8,5.1,8.7c4.5,5.8,10.4,10.9,16.1,12.4
					c2.5,0.7,4.3,1,6.1,0.9c1.3-0.1,2.6-0.5,4-1.2c0.6,2.3,1.2,5.5,2.1,8.6c0.9,2.4,2.5,4.4,6.1,6.9c6.2,4.6,11.3,7.5,15.5,8.7
					c4.2,1.2,7.8,0.7,10.5-1.4c1.3-1,2.4-2.4,3.5-4l-2.3,8.6c-0.1,0.5,0.2,1.1,0.7,1.2c0.5,0.1,1.1-0.2,1.2-0.7l3.1-11.6l4.8,1.3
					c0.5,0.1,1.1-0.2,1.2-0.7l12.4-46.3c0.1-0.5-0.2-1.1-0.7-1.2l-4.8-1.3l3.1-11.6c0.2-0.5-0.1-1.2-0.6-1.3
					c-0.5-0.2-1.2,0.1-1.3,0.6c-1,3.9-2.1,7.7-3.1,11.5c0-2.2-0.2-4.2-0.8-6c-1.1-3.9-3.6-7-7.9-8.4c-4.2-1.4-10.1-1.4-18.1,0.4
					c-4.5,1-6.8,1.8-8.8,3.4c-2,1.7-4.2,4.2-6.1,6.2c-1.9-2.9-4.1-4.4-8.4-5.6c-5.7-1.5-13.5-0.1-20.2,2.7c-3.3,1.4-6.4,3-8.8,5
					S288.3,252.3,287.7,254.6L287.7,254.6z M318.6,241.9c0.8,0.1,1.6,0.2,2.4,0.4c4.2,1.1,5.7,2,7.3,4.7c2.7,4.9,5.7,12.2,3.9,19
					c-1.8,6.7-6.7,11.7-12.5,15.1c-1.3,0.8-2.5,1.2-3.8,1.3c-1.4,0.1-3-0.2-5.4-0.8c-0.7-0.2-1.4-0.5-2.1-0.8
					c-0.5-6.9-0.2-14.1,1.6-20.6C312,252.9,314.5,248.1,318.6,241.9z M311.9,260.6c-1.7,6.4-2.5,12.9-1.1,15c3.6,1,6,1.6,11.8-0.7
					c3.1-1.8,6.4-4.7,7.7-9.5c1.3-4.8-0.2-9.1-1.9-12.1c-3.9-4.9-6.2-5.5-9.9-6.5C316.1,248.2,313.6,254.3,311.9,260.6L311.9,260.6z
					 M371,252.8l-11.9,44.3l-26.1-7l11.9-44.3L371,252.8z M376.8,254.3l-11.9,44.3l-3.9-1l11.9-44.3L376.8,254.3z"/>
			</g>
		</g>
	</g>
</g>
</svg>
