<?xml version="1.0" encoding="utf-8"?>
<!-- Generator: Adobe Illustrator 26.2.0, SVG Export Plug-In . SVG Version: 6.00 Build 0)  -->
<svg version="1.1" id="Laag_1" xmlns="http://www.w3.org/2000/svg" xmlns:xlink="http://www.w3.org/1999/xlink" x="0px" y="0px"
	 viewBox="0 0 660.4 737.4" style="enable-background:new 0 0 660.4 737.4;" xml:space="preserve">
<style type="text/css">
	.st0{clip-path:url(#SVGID_00000073684494984816379240000016220663185763199125_);}
	.st1{fill:#FEC859;}
	.st2{fill:#FA448C;}
	.st3{fill:#491D88;}
	.st4{fill:#43B5A0;}
	.st5{fill:#331A38;}
	.st6{clip-path:url(#SVGID_00000173878907959994169920000015719548496993436600_);}
	.st7{clip-path:url(#SVGID_00000040560561371509899900000017177568498555105190_);}
	.st8{clip-path:url(#SVGID_00000078761744970562586480000016082594428491496631_);}
	.st9{clip-path:url(#SVGID_00000132047779933696206920000016391501657639855271_);}
	.st10{clip-path:url(#SVGID_00000031199165099661935040000013526442210144873614_);}
</style>
<g id="symbol-1">
	<g>
		<g>
			<defs>
				<path id="SVGID_1_" d="M15.6,539.8c-7.8,4.5-15.6,0-15.6-9V206.5c0-9,7.8-13.5,15.6-9l280.9,162.1c7.8,4.5,7.8,13.5,0,18
					L15.6,539.8z"/>
			</defs>
			<clipPath id="SVGID_00000141438225481292098000000011732544038437746594_">
				<use xlink:href="#SVGID_1_"  style="overflow:visible;"/>
			</clipPath>
			<g style="clip-path:url(#SVGID_00000141438225481292098000000011732544038437746594_);">
				<path class="st1" d="M15.6,539.8c-7.8,4.5-15.6,0-15.6-9V206.5c0-9,7.8-13.5,15.6-9l280.9,162.1c7.8,4.5,7.8,13.5,0,18
					L15.6,539.8z"/>
				<path class="st2" d="M47.8,239.7c10.5-3.7,18-13.7,18-25.5c0-14.9-12.1-27-27-27s-27,12.1-27,27c0,11.8,7.5,21.8,18,25.5v39.1
					l-72.9,72.9c-6-1.6-12.7,0-17.4,4.7c-7,7-7,18.4,0,25.5c7,7,18.4,7,25.5,0c4.7-4.7,6.3-11.4,4.7-17.4l78.2-78.1L47.8,239.7z
					 M29.8,214.2c0-5,4-9,9-9s9,4,9,9c0,5-4,9-9,9S29.8,219.2,29.8,214.2z"/>
				<path class="st3" d="M205.2,224.8c10.5-3.7,18-13.7,18-25.5c0-14.9-12.1-27-27-27c-14.9,0-27,12.1-27,27
					c0,11.8,7.5,21.8,18,25.5v39.1l-65.9,65.9c-10-4.8-22.4-3-30.8,5.3c-10.6,10.6-10.6,27.7,0,38.2s27.7,10.6,38.2,0
					c8.3-8.3,10.1-20.7,5.3-30.8l71.2-71.2L205.2,224.8z M103.2,347.8c3.5-3.5,9.2-3.5,12.7,0c3.5,3.5,3.5,9.2,0,12.7
					c-3.5,3.5-9.2,3.5-12.7,0C99.7,357.1,99.7,351.4,103.2,347.8z M187.2,199.3c0-5,4-9,9-9c5,0,9,4,9,9c0,5-4,9-9,9
					C191.2,208.3,187.2,204.3,187.2,199.3z"/>
				<path class="st2" d="M266.3,453.5c-5.4,3.1-9,8.9-9,15.6c0,10,8.1,18,18,18s18-8.1,18-18c0-6.7-3.6-12.5-9-15.6V260.3
					c10.5-3.7,18-13.7,18-25.5c0-14.9-12.1-27-27-27s-27,12.1-27,27c0,11.8,7.5,21.8,18,25.5V453.5z M284.4,234.8c0,5-4,9-9,9
					s-9-4-9-9c0-5,4-9,9-9S284.4,229.9,284.4,234.8z"/>
				<path class="st4" d="M227.7,484c-10.5,3.7-18,13.7-18,25.5c0,14.9,12.1,27,27,27c14.9,0,27-12.1,27-27c0-11.8-7.5-21.8-18-25.5
					v-46.6L200,391.7v-49c5.4-3.1,9-8.9,9-15.6c0-10-8.1-18-18-18c-10,0-18,8.1-18,18c0,6.7,3.6,12.5,9,15.6v56.5l45.7,45.7
					L227.7,484z M245.7,509.5c0,5-4,9-9,9c-5,0-9-4-9-9c0-5,4-9,9-9C241.7,500.5,245.7,504.5,245.7,509.5z"/>
				<path class="st4" d="M73.6,437.6c3.7,10.5,13.7,18,25.5,18c14.9,0,27-12.1,27-27c0-14.9-12.1-27-27-27c-11.8,0-21.8,7.5-25.5,18
					H-73.6c-3.7-10.5-13.7-18-25.5-18c-14.9,0-27,12.1-27,27c0,14.9,12.1,27,27,27c11.8,0,21.8-7.5,25.5-18H73.6z M-99.1,419.6
					c5,0,9,4,9,9c0,5-4,9-9,9s-9-4-9-9C-108.1,423.6-104.1,419.6-99.1,419.6z M99.1,419.6c5,0,9,4,9,9c0,5-4,9-9,9c-5,0-9-4-9-9
					C90.1,423.6,94.1,419.6,99.1,419.6z"/>
				<path class="st3" d="M135.9,501.1c3.7,10.5,13.7,18,25.5,18c14.9,0,27-12.1,27-27c0-14.9-12.1-27-27-27
					c-11.8,0-21.8,7.5-25.5,18H60.8c-3.7-10.5-13.7-18-25.5-18c-14.9,0-27,12.1-27,27c0,14.9,12.1,27,27,27c11.8,0,21.8-7.5,25.5-18
					H135.9z M35.3,483.1c5,0,9,4,9,9s-4,9-9,9s-9-4-9-9S30.3,483.1,35.3,483.1z M161.4,483.1c5,0,9,4,9,9s-4,9-9,9c-5,0-9-4-9-9
					S156.5,483.1,161.4,483.1z"/>
				<path class="st3" d="M283.1,300.2c3.7,10.5,13.7,18,25.5,18c14.9,0,27-12.1,27-27c0-14.9-12.1-27-27-27
					c-11.8,0-21.8,7.5-25.5,18h-46.6l-45.7,45.7h-39.1c-3.7-10.5-13.7-18-25.5-18c-14.9,0-27,12.1-27,27c0,14.9,12.1,27,27,27
					c11.8,0,21.8-7.5,25.5-18h46.6l45.7-45.7H283.1z M126.2,327.8c5,0,9,4,9,9s-4,9-9,9s-9-4-9-9S121.2,327.8,126.2,327.8z
					 M308.6,282.1c5,0,9,4,9,9s-4,9-9,9s-9-4-9-9S303.6,282.1,308.6,282.1z"/>
				<path class="st2" d="M191.9,198.5c3.1,5.4,8.9,9,15.6,9c10,0,18-8.1,18-18c0-10-8.1-18-18-18c-6.7,0-12.5,3.6-15.6,9H63.3
					l-90.9,90.9c-6-1.6-12.7,0-17.4,4.7c-7,7-7,18.4,0,25.5s18.4,7,25.5,0c4.7-4.7,6.3-11.4,4.7-17.4l85.6-85.6H191.9z"/>
				<path class="st5" d="M233.1,421.9c3.1,5.4,8.9,9,15.6,9c10,0,18-8.1,18-18c0-10-8.1-18-18-18c-6.7,0-12.5,3.6-15.6,9h-56.5
					l-32.9,32.9c-10-4.8-22.4-3-30.8,5.3c-10.6,10.6-10.6,27.7,0,38.2c10.6,10.6,27.7,10.6,38.2,0c8.3-8.3,10.1-20.7,5.3-30.8
					l27.7-27.7H233.1z M125.6,454.9c3.5-3.5,9.2-3.5,12.7,0c3.5,3.5,3.5,9.2,0,12.7c-3.5,3.5-9.2,3.5-12.7,0
					C122.1,464.1,122.1,458.4,125.6,454.9z"/>
			</g>
		</g>
		<g>
			<defs>
				<path id="SVGID_00000078742156432972123210000006225132216232619660_" d="M321.2,10.8c0-9-7.8-13.5-15.6-9L24.6,163.9
					c-7.8,4.5-7.8,13.5,0,18l280.9,162.1c7.8,4.5,15.6,0,15.6-9V10.8z"/>
			</defs>
			<clipPath id="SVGID_00000004548606708949326160000016638400053970133678_">
				<use xlink:href="#SVGID_00000078742156432972123210000006225132216232619660_"  style="overflow:visible;"/>
			</clipPath>
			<g style="clip-path:url(#SVGID_00000004548606708949326160000016638400053970133678_);">
				<path class="st1" d="M321.2,10.8c0-9-7.8-13.5-15.6-9L24.6,163.9c-7.8,4.5-7.8,13.5,0,18l280.9,162.1c7.8,4.5,15.6,0,15.6-9
					V10.8z"/>
				<path class="st2" d="M77.3,188.7c2,10.9-2.9,22.5-13.1,28.3c-12.9,7.5-29.5,3-36.9-9.9c-7.5-12.9-3-29.5,9.9-36.9
					c10.2-5.9,22.6-4.4,31.1,2.9l33.9-19.6L128.8,54c-4.4-4.4-6.4-11-4.7-17.4c2.6-9.6,12.5-15.3,22.1-12.7
					c9.6,2.6,15.3,12.5,12.7,22.1c-1.7,6.4-6.7,11.1-12.7,12.7l-28.6,106.7L77.3,188.7z M46.2,185.8c-4.3,2.5-5.8,8-3.3,12.3
					c2.5,4.3,8,5.8,12.3,3.3c4.3-2.5,5.8-8,3.3-12.3C56,184.8,50.5,183.3,46.2,185.8z"/>
				<path class="st3" d="M143,332.4c2,10.9-2.9,22.5-13.1,28.3c-12.9,7.5-29.5,3-36.9-9.9c-7.5-12.9-3-29.5,9.9-36.9
					c10.2-5.9,22.6-4.4,31.1,2.9l33.9-19.6l24.1-90c-9.2-6.3-13.9-17.9-10.8-29.3c3.9-14.4,18.7-23,33.1-19.1
					c14.4,3.9,23,18.7,19.1,33.1c-3,11.4-12.9,19.1-24,20l-26.1,97.2L143,332.4z M198.6,182.6c-1.3,4.8,1.6,9.7,6.4,11
					s9.7-1.6,11-6.4s-1.6-9.7-6.4-11C204.9,175,199.9,177.8,198.6,182.6z M112,329.6c-4.3,2.5-5.8,8-3.3,12.3
					c2.5,4.3,8,5.8,12.3,3.3c4.3-2.5,5.8-8,3.3-12.3C121.8,328.5,116.3,327.1,112,329.6z"/>
				<path class="st2" d="M371.7,271c0-6.2,3.2-12.3,9-15.6c8.6-5,19.6-2,24.6,6.6c5,8.6,2,19.6-6.6,24.6c-5.8,3.3-12.6,3.1-18,0
					l-167.3,96.6c2,10.9-2.9,22.5-13.1,28.3c-12.9,7.5-29.5,3-36.9-9.9s-3-29.5,9.9-36.9c10.2-5.9,22.6-4.4,31.1,2.9L371.7,271z
					 M191.3,395.9c4.3-2.5,5.8-8,3.3-12.3c-2.5-4.3-8-5.8-12.3-3.3c-4.3,2.5-5.8,8-3.3,12.3C181.5,397,187,398.4,191.3,395.9z"/>
				<path class="st4" d="M378.8,222.3c-2-10.9,2.9-22.5,13.1-28.3c12.9-7.5,29.5-3,36.9,9.9s3,29.5-9.9,36.9
					c-10.2,5.9-22.6,4.4-31.1-2.9l-40.4,23.3l-62.4-16.7L242.6,269c0,6.2-3.2,12.3-9,15.6c-8.6,5-19.6,2-24.6-6.6
					c-5-8.6-2-19.6,6.6-24.6c5.8-3.3,12.6-3.1,18,0l48.9-28.2l62.4,16.7L378.8,222.3z M409.9,225.2c4.3-2.5,5.8-8,3.3-12.3
					c-2.5-4.3-8-5.8-12.3-3.3c-4.3,2.5-5.8,8-3.3,12.3C400.1,226.2,405.6,227.7,409.9,225.2z"/>
				<path class="st4" d="M261.6,112.1c10.9-2,22.5,2.9,28.4,13.1c7.5,12.9,3,29.5-9.9,36.9c-12.9,7.5-29.5,3-36.9-9.9
					c-5.9-10.2-4.4-22.6,2.9-31.1L172.4-6.3c-10.9,2-22.5-2.9-28.4-13.1c-7.5-12.9-3-29.5,9.9-36.9c12.9-7.5,29.5-3,36.9,9.9
					c5.9,10.2,4.4,22.6-2.9,31.1L261.6,112.1z M159.6-28.4c2.5,4.3,8,5.8,12.3,3.3c4.3-2.5,5.8-8,3.3-12.3s-8-5.8-12.3-3.3
					C158.6-38.2,157.1-32.7,159.6-28.4z M258.7,143.2c2.5,4.3,8,5.8,12.3,3.3c4.3-2.5,5.8-8,3.3-12.3c-2.5-4.3-8-5.8-12.3-3.3
					C257.7,133.4,256.3,138.9,258.7,143.2z"/>
				<path class="st3" d="M347.8,134.3c10.9-2,22.5,2.9,28.4,13.1c7.5,12.9,3,29.5-9.9,36.9c-12.9,7.5-29.5,3-36.9-9.9
					c-5.9-10.2-4.4-22.6,2.9-31.1l-37.6-65.1c-10.9,2-22.5-2.9-28.4-13.1c-7.5-12.9-3-29.5,9.9-36.9c12.9-7.5,29.5-3,36.9,9.9
					c5.9,10.2,4.4,22.6-2.9,31.1L347.8,134.3z M281.8,56.2c2.5,4.3,8,5.8,12.3,3.3c4.3-2.5,5.8-8,3.3-12.3c-2.5-4.3-8-5.8-12.3-3.3
					C280.8,46.4,279.3,51.9,281.8,56.2z M344.9,165.4c2.5,4.3,8,5.8,12.3,3.3c4.3-2.5,5.8-8,3.3-12.3c-2.5-4.3-8-5.8-12.3-3.3
					C343.9,155.6,342.4,161.1,344.9,165.4z"/>
				<path class="st3" d="M247.3,362.2c10.9-2,22.5,2.9,28.4,13.1c7.5,12.9,3,29.5-9.9,36.9c-12.9,7.5-29.5,3-36.9-9.9
					c-5.9-10.2-4.4-22.6,2.9-31.1l-23.3-40.3l16.7-62.4l-19.6-33.9c-10.9,2-22.5-2.9-28.4-13.1c-7.5-12.9-3-29.5,9.9-36.9
					c12.9-7.5,29.5-3,36.9,9.9c5.9,10.2,4.4,22.6-2.9,31.1l23.3,40.3l-16.7,62.4L247.3,362.2z M192.8,212.5c2.5,4.3,8,5.8,12.3,3.3
					c4.3-2.5,5.8-8,3.3-12.3c-2.5-4.3-8-5.8-12.3-3.3C191.8,202.7,190.3,208.2,192.8,212.5z M244.4,393.3c2.5,4.3,8,5.8,12.3,3.3
					c4.3-2.5,5.8-8,3.3-12.3c-2.5-4.3-8-5.8-12.3-3.3C243.4,383.4,241.9,389,244.4,393.3z"/>
				<path class="st2" d="M113.6,334.1c6.2,0,12.3,3.2,15.6,9c5,8.6,2,19.6-6.6,24.6c-8.6,5-19.6,2-24.6-6.6c-3.3-5.8-3.1-12.6,0-18
					L33.7,231.8L67,107.6c-4.4-4.4-6.4-11-4.7-17.4c2.6-9.6,12.5-15.3,22.1-12.7C94,80.1,99.7,90,97.1,99.6
					c-1.7,6.4-6.7,11.1-12.7,12.7L53,229.2L113.6,334.1z"/>
				<path class="st5" d="M327.8,258c6.2,0,12.3,3.2,15.6,9c5,8.6,2,19.6-6.6,24.6s-19.6,2-24.6-6.6c-3.3-5.8-3.1-12.6,0-18
					l-28.2-48.9l12.1-45c-9.2-6.3-13.9-17.9-10.8-29.3c3.9-14.4,18.7-23,33.1-19.1c14.4,3.9,23,18.7,19.1,33.1
					c-3,11.4-12.9,19.1-24,20l-10.1,37.8L327.8,258z M302.6,148.5c-1.3,4.8,1.6,9.7,6.4,11c4.8,1.3,9.7-1.6,11-6.4
					c1.3-4.8-1.6-9.7-6.4-11C308.8,140.8,303.9,143.7,302.6,148.5z"/>
			</g>
		</g>
		<g>
			<defs>
				<path id="SVGID_00000118395893056267111630000010815110432747248256_" d="M339.2,10.8c0-9,7.8-13.5,15.6-9l280.9,162.1
					c7.8,4.5,7.8,13.5,0,18L354.8,344.1c-7.8,4.5-15.6,0-15.6-9V10.8z"/>
			</defs>
			<clipPath id="SVGID_00000160869659738143941370000010929425784055849912_">
				<use xlink:href="#SVGID_00000118395893056267111630000010815110432747248256_"  style="overflow:visible;"/>
			</clipPath>
			<g style="clip-path:url(#SVGID_00000160869659738143941370000010929425784055849912_);">
				<path class="st1" d="M339.2,10.8c0-9,7.8-13.5,15.6-9l280.9,162.1c7.8,4.5,7.8,13.5,0,18L354.8,344.1c-7.8,4.5-15.6,0-15.6-9
					V10.8z"/>
				<path class="st2" d="M583.1,188.7c-2,10.9,2.9,22.5,13.1,28.3c12.9,7.5,29.5,3,36.9-9.9c7.5-12.9,3-29.5-9.9-36.9
					c-10.2-5.9-22.6-4.4-31.1,2.9l-33.9-19.6L531.5,54c4.4-4.4,6.4-11,4.7-17.4c-2.6-9.6-12.5-15.3-22.1-12.7
					c-9.6,2.6-15.3,12.5-12.7,22.1c1.7,6.4,6.7,11.1,12.7,12.7l28.6,106.7L583.1,188.7z M614.2,185.8c4.3,2.5,5.8,8,3.3,12.3
					c-2.5,4.3-8,5.8-12.3,3.3c-4.3-2.5-5.8-8-3.3-12.3C604.4,184.8,609.9,183.3,614.2,185.8z"/>
				<path class="st3" d="M517.3,332.4c-2,10.9,2.9,22.5,13.1,28.3c12.9,7.5,29.5,3,36.9-9.9s3-29.5-9.9-36.9
					c-10.2-5.9-22.6-4.4-31.1,2.9l-33.9-19.6l-24.1-90c9.2-6.3,13.9-17.9,10.8-29.3c-3.9-14.4-18.7-23-33.1-19.1
					c-14.4,3.9-23,18.7-19.1,33.1c3,11.4,12.9,19.1,24,20l26.1,97.2L517.3,332.4z M461.7,182.6c1.3,4.8-1.6,9.7-6.4,11
					c-4.8,1.3-9.7-1.6-11-6.4c-1.3-4.8,1.6-9.7,6.4-11C455.5,175,460.4,177.8,461.7,182.6z M548.4,329.6c4.3,2.5,5.8,8,3.3,12.3
					c-2.5,4.3-8,5.8-12.3,3.3c-4.3-2.5-5.8-8-3.3-12.3C538.6,328.5,544.1,327.1,548.4,329.6z"/>
				<path class="st2" d="M288.7,271c0-6.2-3.2-12.3-9-15.6c-8.6-5-19.6-2-24.6,6.6c-5,8.6-2,19.6,6.6,24.6c5.8,3.3,12.6,3.1,18,0
					L447,383.2c-2,10.9,2.9,22.5,13.1,28.3c12.9,7.5,29.5,3,36.9-9.9c7.5-12.9,3-29.5-9.9-36.9c-10.2-5.9-22.6-4.4-31.1,2.9
					L288.7,271z M469,395.9c-4.3-2.5-5.8-8-3.3-12.3c2.5-4.3,8-5.8,12.3-3.3c4.3,2.5,5.8,8,3.3,12.3
					C478.9,397,473.4,398.4,469,395.9z"/>
				<path class="st4" d="M281.5,222.3c2-10.9-2.9-22.5-13.1-28.3c-12.9-7.5-29.5-3-36.9,9.9c-7.5,12.9-3,29.5,9.9,36.9
					c10.2,5.9,22.6,4.4,31.1-2.9l40.4,23.3l62.4-16.7l42.4,24.5c0,6.2,3.2,12.3,9,15.6c8.6,5,19.6,2,24.6-6.6c5-8.6,2-19.6-6.6-24.6
					c-5.8-3.3-12.6-3.1-18,0l-48.9-28.2l-62.4,16.7L281.5,222.3z M250.4,225.2c-4.3-2.5-5.8-8-3.3-12.3c2.5-4.3,8-5.8,12.3-3.3
					c4.3,2.5,5.8,8,3.3,12.3C260.2,226.2,254.7,227.7,250.4,225.2z"/>
				<path class="st4" d="M398.8,112.1c-10.9-2-22.5,2.9-28.4,13.1c-7.5,12.9-3,29.5,9.9,36.9c12.9,7.5,29.5,3,36.9-9.9
					c5.9-10.2,4.4-22.6-2.9-31.1L488-6.3c10.9,2,22.5-2.9,28.4-13.1c7.5-12.9,3-29.5-9.9-36.9c-12.9-7.5-29.5-3-36.9,9.9
					c-5.9,10.2-4.4,22.6,2.9,31.1L398.8,112.1z M500.7-28.4c-2.5,4.3-8,5.8-12.3,3.3c-4.3-2.5-5.8-8-3.3-12.3
					c2.5-4.3,8-5.8,12.3-3.3C501.7-38.2,503.2-32.7,500.7-28.4z M401.6,143.2c-2.5,4.3-8,5.8-12.3,3.3c-4.3-2.5-5.8-8-3.3-12.3
					c2.5-4.3,8-5.8,12.3-3.3C402.6,133.4,404.1,138.9,401.6,143.2z"/>
				<path class="st3" d="M312.6,134.3c-10.9-2-22.5,2.9-28.4,13.1c-7.5,12.9-3,29.5,9.9,36.9c12.9,7.5,29.5,3,36.9-9.9
					c5.9-10.2,4.4-22.6-2.9-31.1l37.6-65.1c10.9,2,22.5-2.9,28.4-13.1c7.5-12.9,3-29.5-9.9-36.9c-12.9-7.5-29.5-3-36.9,9.9
					c-5.9,10.2-4.4,22.6,2.9,31.1L312.6,134.3z M378.5,56.2c-2.5,4.3-8,5.8-12.3,3.3c-4.3-2.5-5.8-8-3.3-12.3
					c2.5-4.3,8-5.8,12.3-3.3C379.5,46.4,381,51.9,378.5,56.2z M315.5,165.4c-2.5,4.3-8,5.8-12.3,3.3c-4.3-2.5-5.8-8-3.3-12.3
					c2.5-4.3,8-5.8,12.3-3.3C316.5,155.6,317.9,161.1,315.5,165.4z"/>
				<path class="st3" d="M413.1,362.2c-10.9-2-22.5,2.9-28.4,13.1c-7.5,12.9-3,29.5,9.9,36.9c12.9,7.5,29.5,3,36.9-9.9
					c5.9-10.2,4.4-22.6-2.9-31.1l23.3-40.3l-16.7-62.4l19.6-33.9c10.9,2,22.5-2.9,28.4-13.1c7.5-12.9,3-29.5-9.9-36.9
					c-12.9-7.5-29.5-3-36.9,9.9c-5.9,10.2-4.4,22.6,2.9,31.1l-23.3,40.3l16.7,62.4L413.1,362.2z M467.6,212.5
					c-2.5,4.3-8,5.8-12.3,3.3c-4.3-2.5-5.8-8-3.3-12.3c2.5-4.3,8-5.8,12.3-3.3C468.6,202.7,470.1,208.2,467.6,212.5z M416,393.3
					c-2.5,4.3-8,5.8-12.3,3.3c-4.3-2.5-5.8-8-3.3-12.3c2.5-4.3,8-5.8,12.3-3.3C417,383.4,418.4,389,416,393.3z"/>
				<path class="st2" d="M546.8,334.1c-6.2,0-12.3,3.2-15.6,9c-5,8.6-2,19.6,6.6,24.6s19.6,2,24.6-6.6c3.3-5.8,3.1-12.6,0-18
					l64.3-111.3l-33.3-124.1c4.4-4.4,6.4-11,4.7-17.4c-2.6-9.6-12.5-15.3-22.1-12.7c-9.6,2.6-15.3,12.5-12.7,22.1
					c1.7,6.4,6.7,11.1,12.7,12.7l31.3,116.9L546.8,334.1z"/>
				<path class="st5" d="M332.6,258c-6.2,0-12.3,3.2-15.6,9c-5,8.6-2,19.6,6.6,24.6s19.6,2,24.6-6.6c3.3-5.8,3.1-12.6,0-18
					l28.2-48.9l-12.1-45c9.2-6.3,13.9-17.9,10.8-29.3c-3.9-14.4-18.7-23-33.1-19.1c-14.4,3.9-23,18.7-19.1,33.1
					c3,11.4,12.9,19.1,24,20l10.1,37.8L332.6,258z M357.8,148.5c1.3,4.8-1.6,9.7-6.4,11c-4.8,1.3-9.7-1.6-11-6.4
					c-1.3-4.8,1.6-9.7,6.4-11C351.6,140.8,356.5,143.7,357.8,148.5z"/>
			</g>
		</g>
		<g>
			<defs>
				<path id="SVGID_00000156588896565575019220000012892421281702686630_" d="M644.7,539.8c7.8,4.5,15.6,0,15.6-9V206.5
					c0-9-7.8-13.5-15.6-9L363.8,359.7c-7.8,4.5-7.8,13.5,0,18L644.7,539.8z"/>
			</defs>
			<clipPath id="SVGID_00000086690253735580119890000012459977369582497714_">
				<use xlink:href="#SVGID_00000156588896565575019220000012892421281702686630_"  style="overflow:visible;"/>
			</clipPath>
			<g style="clip-path:url(#SVGID_00000086690253735580119890000012459977369582497714_);">
				<path class="st1" d="M644.7,539.8c7.8,4.5,15.6,0,15.6-9V206.5c0-9-7.8-13.5-15.6-9L363.8,359.7c-7.8,4.5-7.8,13.5,0,18
					L644.7,539.8z"/>
				<path class="st2" d="M612.6,239.7c-10.5-3.7-18-13.7-18-25.5c0-14.9,12.1-27,27-27s27,12.1,27,27c0,11.8-7.5,21.8-18,25.5v39.1
					l72.9,72.9c6-1.6,12.7,0,17.4,4.7c7,7,7,18.4,0,25.5c-7,7-18.4,7-25.5,0c-4.7-4.7-6.3-11.4-4.7-17.4l-78.2-78.1L612.6,239.7z
					 M630.6,214.2c0-5-4-9-9-9c-5,0-9,4-9,9c0,5,4,9,9,9C626.6,223.3,630.6,219.2,630.6,214.2z"/>
				<path class="st3" d="M455.2,224.8c-10.5-3.7-18-13.7-18-25.5c0-14.9,12.1-27,27-27s27,12.1,27,27c0,11.8-7.5,21.8-18,25.5v39.1
					l65.9,65.9c10-4.8,22.4-3,30.8,5.3c10.6,10.6,10.6,27.7,0,38.2c-10.6,10.6-27.7,10.6-38.2,0c-8.3-8.3-10.1-20.7-5.3-30.8
					l-71.2-71.2V224.8z M557.1,347.8c-3.5-3.5-9.2-3.5-12.7,0c-3.5,3.5-3.5,9.2,0,12.7c3.5,3.5,9.2,3.5,12.7,0
					C560.6,357.1,560.6,351.4,557.1,347.8z M473.2,199.3c0-5-4-9-9-9c-5,0-9,4-9,9c0,5,4,9,9,9C469.2,208.3,473.2,204.3,473.2,199.3
					z"/>
				<path class="st2" d="M394,453.5c5.4,3.1,9,8.9,9,15.6c0,10-8.1,18-18,18s-18-8.1-18-18c0-6.7,3.6-12.5,9-15.6V260.3
					c-10.5-3.7-18-13.7-18-25.5c0-14.9,12.1-27,27-27s27,12.1,27,27c0,11.8-7.5,21.8-18,25.5V453.5z M376,234.8c0,5,4,9,9,9s9-4,9-9
					c0-5-4-9-9-9S376,229.9,376,234.8z"/>
				<path class="st4" d="M432.6,484c10.5,3.7,18,13.7,18,25.5c0,14.9-12.1,27-27,27s-27-12.1-27-27c0-11.8,7.5-21.8,18-25.5v-46.6
					l45.7-45.7v-49c-5.4-3.1-9-8.9-9-15.6c0-10,8.1-18,18-18s18,8.1,18,18c0,6.7-3.6,12.5-9,15.6v56.5l-45.7,45.7V484z M414.6,509.5
					c0,5,4,9,9,9s9-4,9-9c0-5-4-9-9-9S414.6,504.5,414.6,509.5z"/>
				<path class="st4" d="M586.7,437.6c-3.7,10.5-13.7,18-25.5,18c-14.9,0-27-12.1-27-27c0-14.9,12.1-27,27-27
					c11.8,0,21.8,7.5,25.5,18H734c3.7-10.5,13.7-18,25.5-18c14.9,0,27,12.1,27,27c0,14.9-12.1,27-27,27c-11.8,0-21.8-7.5-25.5-18
					H586.7z M759.5,419.6c-5,0-9,4-9,9c0,5,4,9,9,9c5,0,9-4,9-9C768.5,423.6,764.5,419.6,759.5,419.6z M561.2,419.6c-5,0-9,4-9,9
					c0,5,4,9,9,9c5,0,9-4,9-9C570.2,423.6,566.2,419.6,561.2,419.6z"/>
				<path class="st3" d="M524.4,501.1c-3.7,10.5-13.7,18-25.5,18c-14.9,0-27-12.1-27-27c0-14.9,12.1-27,27-27
					c11.8,0,21.8,7.5,25.5,18h75.2c3.7-10.5,13.7-18,25.5-18c14.9,0,27,12.1,27,27c0,14.9-12.1,27-27,27c-11.8,0-21.8-7.5-25.5-18
					H524.4z M625.1,483.1c-5,0-9,4-9,9s4,9,9,9c5,0,9-4,9-9S630,483.1,625.1,483.1z M498.9,483.1c-5,0-9,4-9,9s4,9,9,9c5,0,9-4,9-9
					S503.9,483.1,498.9,483.1z"/>
				<path class="st3" d="M377.3,300.2c-3.7,10.5-13.7,18-25.5,18c-14.9,0-27-12.1-27-27c0-14.9,12.1-27,27-27
					c11.8,0,21.8,7.5,25.5,18h46.6l45.7,45.7h39.1c3.7-10.5,13.7-18,25.5-18c14.9,0,27,12.1,27,27c0,14.9-12.1,27-27,27
					c-11.8,0-21.8-7.5-25.5-18h-46.6l-45.7-45.7H377.3z M534.2,327.8c-5,0-9,4-9,9s4,9,9,9c5,0,9-4,9-9S539.2,327.8,534.2,327.8z
					 M351.8,282.1c-5,0-9,4-9,9s4,9,9,9s9-4,9-9S356.8,282.1,351.8,282.1z"/>
				<path class="st2" d="M468.5,198.5c-3.1,5.4-8.9,9-15.6,9c-10,0-18-8.1-18-18c0-10,8.1-18,18-18c6.7,0,12.5,3.6,15.6,9H597
					l90.9,90.9c6-1.6,12.7,0,17.4,4.7c7,7,7,18.4,0,25.5s-18.4,7-25.5,0c-4.7-4.7-6.3-11.4-4.7-17.4l-85.6-85.6H468.5z"/>
				<path class="st5" d="M427.3,421.9c-3.1,5.4-8.9,9-15.6,9c-10,0-18-8.1-18-18c0-10,8.1-18,18-18c6.7,0,12.5,3.6,15.6,9h56.5
					l32.9,32.9c10-4.8,22.4-3,30.8,5.3c10.6,10.6,10.6,27.7,0,38.2c-10.6,10.6-27.7,10.6-38.2,0c-8.3-8.3-10.1-20.7-5.3-30.8
					l-27.7-27.7H427.3z M534.7,454.9c-3.5-3.5-9.2-3.5-12.7,0c-3.5,3.5-3.5,9.2,0,12.7c3.5,3.5,9.2,3.5,12.7,0
					C538.3,464.1,538.3,458.4,534.7,454.9z"/>
			</g>
		</g>
		<g>
			<defs>
				<path id="SVGID_00000023276731225876174570000010635921196820665277_" d="M635.7,555.5c7.8,4.5,7.8,13.5,0,18L354.8,735.6
					c-7.8,4.5-15.6,0-15.6-9V402.3c0-9,7.8-13.5,15.6-9L635.7,555.5z"/>
			</defs>
			<clipPath id="SVGID_00000071538850174042551780000007378088204675129993_">
				<use xlink:href="#SVGID_00000023276731225876174570000010635921196820665277_"  style="overflow:visible;"/>
			</clipPath>
			<g style="clip-path:url(#SVGID_00000071538850174042551780000007378088204675129993_);">
				<path class="st1" d="M635.7,555.5c7.8,4.5,7.8,13.5,0,18L354.8,735.6c-7.8,4.5-15.6,0-15.6-9V402.3c0-9,7.8-13.5,15.6-9
					L635.7,555.5z"/>
				<path class="st2" d="M359.7,677.6c-8.5-7.2-20.9-8.7-31.1-2.9c-12.9,7.5-17.4,24-9.9,36.9c7.5,12.9,24,17.4,36.9,9.9
					c10.2-5.9,15.1-17.4,13.1-28.3l33.9-19.6l99.6,26.7c1.6,6,6.3,11,12.7,12.7c9.6,2.6,19.5-3.1,22.1-12.7
					c2.6-9.6-3.1-19.5-12.7-22.1c-6.4-1.7-13,0.3-17.4,4.7L400,654.4L359.7,677.6z M346.6,706c-4.3,2.5-9.8,1-12.3-3.3
					c-2.5-4.3-1-9.8,3.3-12.3c4.3-2.5,9.8-1,12.3,3.3C352.4,698,350.9,703.5,346.6,706z"/>
				<path class="st3" d="M268,548.8c-8.5-7.2-20.9-8.7-31.1-2.9c-12.9,7.5-17.4,24-9.9,36.9c7.5,12.9,24,17.4,36.9,9.9
					c10.2-5.9,15.1-17.4,13.1-28.3l33.9-19.6l90,24.1c0.9,11.1,8.6,21,20,24c14.4,3.9,29.2-4.7,33.1-19.1
					c3.9-14.4-4.7-29.2-19.1-33.1c-11.4-3-23,1.6-29.3,10.8l-97.2-26L268,548.8z M425.6,575.6c-4.8-1.3-7.7-6.2-6.4-11
					c1.3-4.8,6.2-7.7,11-6.4c4.8,1.3,7.7,6.2,6.4,11S430.4,576.9,425.6,575.6z M255,577.2c-4.3,2.5-9.8,1-12.3-3.3
					c-2.5-4.3-1-9.8,3.3-12.3c4.3-2.5,9.8-1,12.3,3.3C260.8,569.2,259.3,574.7,255,577.2z"/>
				<path class="st2" d="M435.5,381.6c5.4,3.1,12.2,3.3,18,0c8.6-5,11.6-16,6.6-24.6c-5-8.6-16-11.6-24.6-6.6c-5.8,3.3-9,9.4-9,15.6
					l-167.3,96.6c-8.5-7.2-20.9-8.7-31.1-2.9c-12.9,7.5-17.4,24-9.9,36.9c7.5,12.9,24,17.4,36.9,9.9c10.2-5.9,15.1-17.4,13.1-28.3
					L435.5,381.6z M237.1,475.3c4.3-2.5,9.8-1,12.3,3.3c2.5,4.3,1,9.8-3.3,12.3c-4.3,2.5-9.8,1-12.3-3.3
					C231.3,483.3,232.8,477.8,237.1,475.3z"/>
				<path class="st4" d="M481.3,399.7c8.5,7.2,20.9,8.7,31.1,2.9c12.9-7.5,17.4-24,9.9-36.9s-24-17.4-36.9-9.9
					c-10.2,5.9-15.1,17.4-13.1,28.3l-40.4,23.3l-16.7,62.4l-42.4,24.5c-5.4-3.1-12.2-3.3-18,0c-8.6,5-11.6,16-6.6,24.6
					c5,8.6,16,11.6,24.6,6.6c5.8-3.3,9-9.4,9-15.6l48.9-28.2l16.7-62.4L481.3,399.7z M494.4,371.4c4.3-2.5,9.8-1,12.3,3.3
					c2.5,4.3,1,9.8-3.3,12.3c-4.3,2.5-9.8,1-12.3-3.3C488.6,379.4,490.1,373.9,494.4,371.4z"/>
				<path class="st4" d="M518.2,556.3c7.2-8.5,8.7-20.9,2.9-31.1c-7.5-12.9-24-17.4-36.9-9.9c-12.9,7.5-17.4,24-9.9,36.9
					c5.9,10.2,17.4,15.1,28.4,13.1l73.6,127.5c-7.2,8.5-8.7,20.9-2.9,31.1c7.5,12.9,24,17.4,36.9,9.9c12.9-7.5,17.4-24,9.9-36.9
					c-5.9-10.2-17.4-15.1-28.4-13.1L518.2,556.3z M588.9,714.9c-2.5-4.3-1-9.8,3.3-12.3c4.3-2.5,9.8-1,12.3,3.3
					c2.5,4.3,1,9.8-3.3,12.3C596.9,720.7,591.4,719.2,588.9,714.9z M489.8,543.3c-2.5-4.3-1-9.8,3.3-12.3c4.3-2.5,9.8-1,12.3,3.3
					c2.5,4.3,1,9.8-3.3,12.3C497.8,549.1,492.3,547.6,489.8,543.3z"/>
				<path class="st3" d="M542,470.6c7.2-8.5,8.7-20.9,2.9-31.1c-7.5-12.9-24-17.4-36.9-9.9c-12.9,7.5-17.4,24-9.9,36.9
					c5.9,10.2,17.4,15.1,28.4,13.1l37.6,65.1c-7.2,8.5-8.7,20.9-2.9,31.1c7.5,12.9,24,17.4,36.9,9.9s17.4-24,9.9-36.9
					c-5.9-10.2-17.4-15.1-28.4-13.1L542,470.6z M576.7,566.8c-2.5-4.3-1-9.8,3.3-12.3c4.3-2.5,9.8-1,12.3,3.3
					c2.5,4.3,1,9.8-3.3,12.3C584.7,572.6,579.2,571.1,576.7,566.8z M513.6,457.6c-2.5-4.3-1-9.8,3.3-12.3c4.3-2.5,9.8-1,12.3,3.3
					c2.5,4.3,1,9.8-3.3,12.3S516.1,461.9,513.6,457.6z"/>
				<path class="st3" d="M294.4,443.7c7.2-8.5,8.7-20.9,2.9-31.1c-7.5-12.9-24-17.4-36.9-9.9c-12.9,7.5-17.4,24-9.9,36.9
					c5.9,10.2,17.4,15.1,28.4,13.1l23.3,40.3l62.4,16.7l19.6,33.9c-7.2,8.5-8.7,20.9-2.9,31.1c7.5,12.9,24,17.4,36.9,9.9
					c12.9-7.5,17.4-24,9.9-36.9c-5.9-10.2-17.4-15.1-28.4-13.1l-23.3-40.3l-62.4-16.7L294.4,443.7z M396.8,565.7
					c-2.5-4.3-1-9.8,3.3-12.3s9.8-1,12.3,3.3c2.5,4.3,1,9.8-3.3,12.3S399.3,570.1,396.8,565.7z M266,430.7c-2.5-4.3-1-9.8,3.3-12.3
					c4.3-2.5,9.8-1,12.3,3.3c2.5,4.3,1,9.8-3.3,12.3C274,436.5,268.5,435,266,430.7z"/>
				<path class="st2" d="M251.9,573.5c3.1-5.4,3.3-12.2,0-18c-5-8.6-16-11.6-24.6-6.6c-8.6,5-11.6,16-6.6,24.6c3.3,5.8,9.4,9,15.6,9
					l64.3,111.3l124.2,33.3c1.6,6,6.3,11,12.7,12.7c9.6,2.6,19.5-3.1,22.1-12.7s-3.1-19.5-12.7-22.1c-6.4-1.7-13,0.3-17.4,4.7
					l-117-31.3L251.9,573.5z"/>
				<path class="st5" d="M424.9,426.1c3.1-5.4,3.3-12.2,0-18c-5-8.6-16-11.6-24.6-6.6c-8.6,5-11.6,16-6.6,24.6c3.3,5.8,9.4,9,15.6,9
					l28.2,48.9l45,12.1c0.9,11.1,8.6,21,20,24c14.4,3.9,29.2-4.7,33.1-19.1c3.9-14.4-4.7-29.2-19.1-33.1c-11.4-3-23,1.6-29.3,10.8
					l-37.8-10.1L424.9,426.1z M507.1,502.7c-4.8-1.3-7.7-6.2-6.4-11c1.3-4.8,6.2-7.7,11-6.4c4.8,1.3,7.7,6.2,6.4,11
					C516.9,501.1,511.9,504,507.1,502.7z"/>
			</g>
		</g>
		<g>
			<defs>
				<path id="SVGID_00000121985980764843857220000013282772904647962250_" d="M24.6,555.5c-7.8,4.5-7.8,13.5,0,18l280.9,162.1
					c7.8,4.5,15.6,0,15.6-9V402.3c0-9-7.8-13.5-15.6-9L24.6,555.5z"/>
			</defs>
			<clipPath id="SVGID_00000092441692160646102020000004721677249530680250_">
				<use xlink:href="#SVGID_00000121985980764843857220000013282772904647962250_"  style="overflow:visible;"/>
			</clipPath>
			<g style="clip-path:url(#SVGID_00000092441692160646102020000004721677249530680250_);">
				<path class="st1" d="M24.6,555.5c-7.8,4.5-7.8,13.5,0,18l280.9,162.1c7.8,4.5,15.6,0,15.6-9V402.3c0-9-7.8-13.5-15.6-9
					L24.6,555.5z"/>
				<path class="st2" d="M300.7,677.6c8.5-7.2,20.9-8.7,31.1-2.9c12.9,7.5,17.4,24,9.9,36.9c-7.5,12.9-24,17.4-36.9,9.9
					c-10.2-5.9-15.1-17.4-13.1-28.3l-33.9-19.6l-99.6,26.7c-1.6,6-6.3,11-12.7,12.7c-9.6,2.6-19.5-3.1-22.1-12.7
					c-2.6-9.6,3.1-19.5,12.7-22.1c6.4-1.7,13,0.3,17.4,4.7l106.8-28.6L300.7,677.6z M313.8,706c4.3,2.5,9.8,1,12.3-3.3
					c2.5-4.3,1-9.8-3.3-12.3c-4.3-2.5-9.8-1-12.3,3.3C308,698,309.5,703.5,313.8,706z"/>
				<path class="st3" d="M392.3,548.8c8.5-7.2,20.9-8.7,31.1-2.9c12.9,7.5,17.4,24,9.9,36.9s-24,17.4-36.9,9.9
					c-10.2-5.9-15.1-17.4-13.1-28.3l-33.9-19.6l-90,24.1c-0.9,11.1-8.6,21-20,24c-14.4,3.9-29.2-4.7-33.1-19.1
					c-3.9-14.4,4.7-29.2,19.1-33.1c11.4-3,23,1.6,29.3,10.8l97.2-26L392.3,548.8z M234.8,575.6c4.8-1.3,7.7-6.2,6.4-11
					c-1.3-4.8-6.2-7.7-11-6.4c-4.8,1.3-7.7,6.2-6.4,11S230,576.9,234.8,575.6z M405.4,577.2c4.3,2.5,9.8,1,12.3-3.3
					c2.5-4.3,1-9.8-3.3-12.3c-4.3-2.5-9.8-1-12.3,3.3C399.6,569.2,401.1,574.7,405.4,577.2z"/>
				<path class="st2" d="M224.8,381.6c-5.4,3.1-12.2,3.3-18,0c-8.6-5-11.6-16-6.6-24.6c5-8.6,16-11.6,24.6-6.6c5.8,3.3,9,9.4,9,15.6
					l167.3,96.6c8.5-7.2,20.9-8.7,31.1-2.9c12.9,7.5,17.4,24,9.9,36.9c-7.5,12.9-24,17.4-36.9,9.9c-10.2-5.9-15.1-17.4-13.1-28.3
					L224.8,381.6z M423.2,475.3c-4.3-2.5-9.8-1-12.3,3.3c-2.5,4.3-1,9.8,3.3,12.3c4.3,2.5,9.8,1,12.3-3.3
					C429,483.3,427.5,477.8,423.2,475.3z"/>
				<path class="st4" d="M179.1,399.7c-8.5,7.2-20.9,8.7-31.1,2.9c-12.9-7.5-17.4-24-9.9-36.9c7.5-12.9,24-17.4,36.9-9.9
					c10.2,5.9,15.1,17.4,13.1,28.3l40.4,23.3l16.7,62.4l42.4,24.5c5.4-3.1,12.2-3.3,18,0c8.6,5,11.6,16,6.6,24.6
					c-5,8.6-16,11.6-24.6,6.6c-5.8-3.3-9-9.4-9-15.6l-48.9-28.2l-16.7-62.4L179.1,399.7z M166,371.4c-4.3-2.5-9.8-1-12.3,3.3
					c-2.5,4.3-1,9.8,3.3,12.3c4.3,2.5,9.8,1,12.3-3.3C171.8,379.4,170.3,373.9,166,371.4z"/>
				<path class="st4" d="M142.2,556.3c-7.2-8.5-8.7-20.9-2.9-31.1c7.5-12.9,24-17.4,36.9-9.9c12.9,7.5,17.4,24,9.9,36.9
					c-5.9,10.2-17.4,15.1-28.4,13.1L84.2,692.8c7.2,8.5,8.7,20.9,2.9,31.1c-7.5,12.9-24,17.4-36.9,9.9c-12.9-7.5-17.4-24-9.9-36.9
					c5.9-10.2,17.4-15.1,28.4-13.1L142.2,556.3z M71.4,714.9c2.5-4.3,1-9.8-3.3-12.3s-9.8-1-12.3,3.3c-2.5,4.3-1,9.8,3.3,12.3
					C63.4,720.7,68.9,719.2,71.4,714.9z M170.6,543.3c2.5-4.3,1-9.8-3.3-12.3c-4.3-2.5-9.8-1-12.3,3.3c-2.5,4.3-1,9.8,3.3,12.3
					C162.6,549.1,168.1,547.6,170.6,543.3z"/>
				<path class="st3" d="M118.4,470.6c-7.2-8.5-8.7-20.9-2.9-31.1c7.5-12.9,24-17.4,36.9-9.9c12.9,7.5,17.4,24,9.9,36.9
					c-5.9,10.2-17.4,15.1-28.4,13.1l-37.6,65.1c7.2,8.5,8.7,20.9,2.9,31.1c-7.5,12.9-24,17.4-36.9,9.9s-17.4-24-9.9-36.9
					c5.9-10.2,17.4-15.1,28.4-13.1L118.4,470.6z M83.6,566.8c2.5-4.3,1-9.8-3.3-12.3s-9.8-1-12.3,3.3c-2.5,4.3-1,9.8,3.3,12.3
					S81.1,571.1,83.6,566.8z M146.7,457.6c2.5-4.3,1-9.8-3.3-12.3c-4.3-2.5-9.8-1-12.3,3.3c-2.5,4.3-1,9.8,3.3,12.3
					C138.7,463.4,144.2,461.9,146.7,457.6z"/>
				<path class="st3" d="M366,443.7c-7.2-8.5-8.7-20.9-2.9-31.1c7.5-12.9,24-17.4,36.9-9.9c12.9,7.5,17.4,24,9.9,36.9
					c-5.9,10.2-17.4,15.1-28.4,13.1l-23.3,40.3l-62.4,16.7l-19.6,33.9c7.2,8.5,8.7,20.9,2.9,31.1c-7.5,12.9-24,17.4-36.9,9.9
					c-12.9-7.5-17.4-24-9.9-36.9c5.9-10.2,17.4-15.1,28.4-13.1l23.3-40.3l62.4-16.7L366,443.7z M263.6,565.7c2.5-4.3,1-9.8-3.3-12.3
					c-4.3-2.5-9.8-1-12.3,3.3c-2.5,4.3-1,9.8,3.3,12.3C255.6,571.5,261.1,570.1,263.6,565.7z M394.4,430.7c2.5-4.3,1-9.8-3.3-12.3
					c-4.3-2.5-9.8-1-12.3,3.3c-2.5,4.3-1,9.8,3.3,12.3C386.4,436.5,391.9,435,394.4,430.7z"/>
				<path class="st2" d="M408.5,573.5c-3.1-5.4-3.3-12.2,0-18c5-8.6,16-11.6,24.6-6.6c8.6,5,11.6,16,6.6,24.6c-3.3,5.8-9.4,9-15.6,9
					l-64.3,111.3l-124.2,33.3c-1.6,6-6.3,11-12.7,12.7c-9.6,2.6-19.5-3.1-22.1-12.7s3.1-19.5,12.7-22.1c6.4-1.7,13,0.3,17.4,4.7
					l117-31.3L408.5,573.5z"/>
				<path class="st5" d="M235.5,426.1c-3.1-5.4-3.3-12.2,0-18c5-8.6,16-11.6,24.6-6.6c8.6,5,11.6,16,6.6,24.6c-3.3,5.8-9.4,9-15.6,9
					L222.9,484l-45,12.1c-0.9,11.1-8.6,21-20,24c-14.4,3.9-29.2-4.7-33.1-19.1c-3.9-14.4,4.7-29.2,19.1-33.1
					c11.4-3,23,1.6,29.3,10.8l37.8-10.1L235.5,426.1z M153.2,502.7c4.8-1.3,7.7-6.2,6.4-11c-1.3-4.8-6.2-7.7-11-6.4
					c-4.8,1.3-7.7,6.2-6.4,11C143.5,501.1,148.4,504,153.2,502.7z"/>
			</g>
		</g>
	</g>
</g>
</svg>
